('C:\\Users\\sspsj\\PycharmProjects\\pythonProject\\build\\HW160947047S\\PYZ-00.pyz',
 [('os', 'C:\\Users\\sspsj\\anaconda3\\envs\\Hw2\\lib\\os.py', 'PYMODULE'),
  ('subprocess',
   'C:\\Users\\sspsj\\anaconda3\\envs\\Hw2\\lib\\subprocess.py',
   'PYMODULE'),
  ('dummy_threading',
   'C:\\Users\\sspsj\\anaconda3\\envs\\Hw2\\lib\\dummy_threading.py',
   'PYMODULE'),
  ('_dummy_thread',
   'C:\\Users\\sspsj\\anaconda3\\envs\\Hw2\\lib\\_dummy_thread.py',
   'PYMODULE'),
  ('selectors',
   'C:\\Users\\sspsj\\anaconda3\\envs\\Hw2\\lib\\selectors.py',
   'PYMODULE'),
  ('threading',
   'C:\\Users\\sspsj\\anaconda3\\envs\\Hw2\\lib\\threading.py',
   'PYMODULE'),
  ('_threading_local',
   'C:\\Users\\sspsj\\anaconda3\\envs\\Hw2\\lib\\_threading_local.py',
   'PYMODULE'),
  ('contextlib',
   'C:\\Users\\sspsj\\anaconda3\\envs\\Hw2\\lib\\contextlib.py',
   'PYMODULE'),
  ('signal',
   'C:\\Users\\sspsj\\anaconda3\\envs\\Hw2\\lib\\signal.py',
   'PYMODULE'),
  ('_strptime',
   'C:\\Users\\sspsj\\anaconda3\\envs\\Hw2\\lib\\_strptime.py',
   'PYMODULE'),
  ('datetime',
   'C:\\Users\\sspsj\\anaconda3\\envs\\Hw2\\lib\\datetime.py',
   'PYMODULE'),
  ('calendar',
   'C:\\Users\\sspsj\\anaconda3\\envs\\Hw2\\lib\\calendar.py',
   'PYMODULE'),
  ('argparse',
   'C:\\Users\\sspsj\\anaconda3\\envs\\Hw2\\lib\\argparse.py',
   'PYMODULE'),
  ('gettext',
   'C:\\Users\\sspsj\\anaconda3\\envs\\Hw2\\lib\\gettext.py',
   'PYMODULE'),
  ('struct',
   'C:\\Users\\sspsj\\anaconda3\\envs\\Hw2\\lib\\struct.py',
   'PYMODULE'),
  ('textwrap',
   'C:\\Users\\sspsj\\anaconda3\\envs\\Hw2\\lib\\textwrap.py',
   'PYMODULE'),
  ('copy', 'C:\\Users\\sspsj\\anaconda3\\envs\\Hw2\\lib\\copy.py', 'PYMODULE'),
  ('ntpath',
   'C:\\Users\\sspsj\\anaconda3\\envs\\Hw2\\lib\\ntpath.py',
   'PYMODULE'),
  ('string',
   'C:\\Users\\sspsj\\anaconda3\\envs\\Hw2\\lib\\string.py',
   'PYMODULE'),
  ('genericpath',
   'C:\\Users\\sspsj\\anaconda3\\envs\\Hw2\\lib\\genericpath.py',
   'PYMODULE'),
  ('posixpath',
   'C:\\Users\\sspsj\\anaconda3\\envs\\Hw2\\lib\\posixpath.py',
   'PYMODULE'),
  ('stat', 'C:\\Users\\sspsj\\anaconda3\\envs\\Hw2\\lib\\stat.py', 'PYMODULE'),
  ('tokenize',
   'C:\\Users\\sspsj\\anaconda3\\envs\\Hw2\\lib\\tokenize.py',
   'PYMODULE'),
  ('token',
   'C:\\Users\\sspsj\\anaconda3\\envs\\Hw2\\lib\\token.py',
   'PYMODULE'),
  ('tracemalloc',
   'C:\\Users\\sspsj\\anaconda3\\envs\\Hw2\\lib\\tracemalloc.py',
   'PYMODULE'),
  ('pickle',
   'C:\\Users\\sspsj\\anaconda3\\envs\\Hw2\\lib\\pickle.py',
   'PYMODULE'),
  ('pprint',
   'C:\\Users\\sspsj\\anaconda3\\envs\\Hw2\\lib\\pprint.py',
   'PYMODULE'),
  ('doctest',
   'C:\\Users\\sspsj\\anaconda3\\envs\\Hw2\\lib\\doctest.py',
   'PYMODULE'),
  ('unittest',
   'C:\\Users\\sspsj\\anaconda3\\envs\\Hw2\\lib\\unittest\\__init__.py',
   'PYMODULE'),
  ('unittest.signals',
   'C:\\Users\\sspsj\\anaconda3\\envs\\Hw2\\lib\\unittest\\signals.py',
   'PYMODULE'),
  ('unittest.main',
   'C:\\Users\\sspsj\\anaconda3\\envs\\Hw2\\lib\\unittest\\main.py',
   'PYMODULE'),
  ('unittest.runner',
   'C:\\Users\\sspsj\\anaconda3\\envs\\Hw2\\lib\\unittest\\runner.py',
   'PYMODULE'),
  ('unittest.loader',
   'C:\\Users\\sspsj\\anaconda3\\envs\\Hw2\\lib\\unittest\\loader.py',
   'PYMODULE'),
  ('unittest.suite',
   'C:\\Users\\sspsj\\anaconda3\\envs\\Hw2\\lib\\unittest\\suite.py',
   'PYMODULE'),
  ('unittest.case',
   'C:\\Users\\sspsj\\anaconda3\\envs\\Hw2\\lib\\unittest\\case.py',
   'PYMODULE'),
  ('logging',
   'C:\\Users\\sspsj\\anaconda3\\envs\\Hw2\\lib\\logging\\__init__.py',
   'PYMODULE'),
  ('unittest.result',
   'C:\\Users\\sspsj\\anaconda3\\envs\\Hw2\\lib\\unittest\\result.py',
   'PYMODULE'),
  ('unittest.util',
   'C:\\Users\\sspsj\\anaconda3\\envs\\Hw2\\lib\\unittest\\util.py',
   'PYMODULE'),
  ('pdb', 'C:\\Users\\sspsj\\anaconda3\\envs\\Hw2\\lib\\pdb.py', 'PYMODULE'),
  ('getopt',
   'C:\\Users\\sspsj\\anaconda3\\envs\\Hw2\\lib\\getopt.py',
   'PYMODULE'),
  ('pydoc',
   'C:\\Users\\sspsj\\anaconda3\\envs\\Hw2\\lib\\pydoc.py',
   'PYMODULE'),
  ('webbrowser',
   'C:\\Users\\sspsj\\anaconda3\\envs\\Hw2\\lib\\webbrowser.py',
   'PYMODULE'),
  ('socket',
   'C:\\Users\\sspsj\\anaconda3\\envs\\Hw2\\lib\\socket.py',
   'PYMODULE'),
  ('shutil',
   'C:\\Users\\sspsj\\anaconda3\\envs\\Hw2\\lib\\shutil.py',
   'PYMODULE'),
  ('zipfile',
   'C:\\Users\\sspsj\\anaconda3\\envs\\Hw2\\lib\\zipfile.py',
   'PYMODULE'),
  ('py_compile',
   'C:\\Users\\sspsj\\anaconda3\\envs\\Hw2\\lib\\py_compile.py',
   'PYMODULE'),
  ('tarfile',
   'C:\\Users\\sspsj\\anaconda3\\envs\\Hw2\\lib\\tarfile.py',
   'PYMODULE'),
  ('gzip', 'C:\\Users\\sspsj\\anaconda3\\envs\\Hw2\\lib\\gzip.py', 'PYMODULE'),
  ('_compression',
   'C:\\Users\\sspsj\\anaconda3\\envs\\Hw2\\lib\\_compression.py',
   'PYMODULE'),
  ('lzma', 'C:\\Users\\sspsj\\anaconda3\\envs\\Hw2\\lib\\lzma.py', 'PYMODULE'),
  ('bz2', 'C:\\Users\\sspsj\\anaconda3\\envs\\Hw2\\lib\\bz2.py', 'PYMODULE'),
  ('email.message',
   'C:\\Users\\sspsj\\anaconda3\\envs\\Hw2\\lib\\email\\message.py',
   'PYMODULE'),
  ('email.policy',
   'C:\\Users\\sspsj\\anaconda3\\envs\\Hw2\\lib\\email\\policy.py',
   'PYMODULE'),
  ('email.contentmanager',
   'C:\\Users\\sspsj\\anaconda3\\envs\\Hw2\\lib\\email\\contentmanager.py',
   'PYMODULE'),
  ('email.quoprimime',
   'C:\\Users\\sspsj\\anaconda3\\envs\\Hw2\\lib\\email\\quoprimime.py',
   'PYMODULE'),
  ('email.headerregistry',
   'C:\\Users\\sspsj\\anaconda3\\envs\\Hw2\\lib\\email\\headerregistry.py',
   'PYMODULE'),
  ('email._header_value_parser',
   'C:\\Users\\sspsj\\anaconda3\\envs\\Hw2\\lib\\email\\_header_value_parser.py',
   'PYMODULE'),
  ('urllib',
   'C:\\Users\\sspsj\\anaconda3\\envs\\Hw2\\lib\\urllib\\__init__.py',
   'PYMODULE'),
  ('email.iterators',
   'C:\\Users\\sspsj\\anaconda3\\envs\\Hw2\\lib\\email\\iterators.py',
   'PYMODULE'),
  ('email.generator',
   'C:\\Users\\sspsj\\anaconda3\\envs\\Hw2\\lib\\email\\generator.py',
   'PYMODULE'),
  ('random',
   'C:\\Users\\sspsj\\anaconda3\\envs\\Hw2\\lib\\random.py',
   'PYMODULE'),
  ('bisect',
   'C:\\Users\\sspsj\\anaconda3\\envs\\Hw2\\lib\\bisect.py',
   'PYMODULE'),
  ('hashlib',
   'C:\\Users\\sspsj\\anaconda3\\envs\\Hw2\\lib\\hashlib.py',
   'PYMODULE'),
  ('email._encoded_words',
   'C:\\Users\\sspsj\\anaconda3\\envs\\Hw2\\lib\\email\\_encoded_words.py',
   'PYMODULE'),
  ('base64',
   'C:\\Users\\sspsj\\anaconda3\\envs\\Hw2\\lib\\base64.py',
   'PYMODULE'),
  ('email.charset',
   'C:\\Users\\sspsj\\anaconda3\\envs\\Hw2\\lib\\email\\charset.py',
   'PYMODULE'),
  ('email.encoders',
   'C:\\Users\\sspsj\\anaconda3\\envs\\Hw2\\lib\\email\\encoders.py',
   'PYMODULE'),
  ('email.base64mime',
   'C:\\Users\\sspsj\\anaconda3\\envs\\Hw2\\lib\\email\\base64mime.py',
   'PYMODULE'),
  ('email._policybase',
   'C:\\Users\\sspsj\\anaconda3\\envs\\Hw2\\lib\\email\\_policybase.py',
   'PYMODULE'),
  ('email.header',
   'C:\\Users\\sspsj\\anaconda3\\envs\\Hw2\\lib\\email\\header.py',
   'PYMODULE'),
  ('email.errors',
   'C:\\Users\\sspsj\\anaconda3\\envs\\Hw2\\lib\\email\\errors.py',
   'PYMODULE'),
  ('email.utils',
   'C:\\Users\\sspsj\\anaconda3\\envs\\Hw2\\lib\\email\\utils.py',
   'PYMODULE'),
  ('email._parseaddr',
   'C:\\Users\\sspsj\\anaconda3\\envs\\Hw2\\lib\\email\\_parseaddr.py',
   'PYMODULE'),
  ('email',
   'C:\\Users\\sspsj\\anaconda3\\envs\\Hw2\\lib\\email\\__init__.py',
   'PYMODULE'),
  ('email.parser',
   'C:\\Users\\sspsj\\anaconda3\\envs\\Hw2\\lib\\email\\parser.py',
   'PYMODULE'),
  ('email.feedparser',
   'C:\\Users\\sspsj\\anaconda3\\envs\\Hw2\\lib\\email\\feedparser.py',
   'PYMODULE'),
  ('quopri',
   'C:\\Users\\sspsj\\anaconda3\\envs\\Hw2\\lib\\quopri.py',
   'PYMODULE'),
  ('uu', 'C:\\Users\\sspsj\\anaconda3\\envs\\Hw2\\lib\\uu.py', 'PYMODULE'),
  ('optparse',
   'C:\\Users\\sspsj\\anaconda3\\envs\\Hw2\\lib\\optparse.py',
   'PYMODULE'),
  ('http.server',
   'C:\\Users\\sspsj\\anaconda3\\envs\\Hw2\\lib\\http\\server.py',
   'PYMODULE'),
  ('http',
   'C:\\Users\\sspsj\\anaconda3\\envs\\Hw2\\lib\\http\\__init__.py',
   'PYMODULE'),
  ('socketserver',
   'C:\\Users\\sspsj\\anaconda3\\envs\\Hw2\\lib\\socketserver.py',
   'PYMODULE'),
  ('mimetypes',
   'C:\\Users\\sspsj\\anaconda3\\envs\\Hw2\\lib\\mimetypes.py',
   'PYMODULE'),
  ('http.client',
   'C:\\Users\\sspsj\\anaconda3\\envs\\Hw2\\lib\\http\\client.py',
   'PYMODULE'),
  ('ssl', 'C:\\Users\\sspsj\\anaconda3\\envs\\Hw2\\lib\\ssl.py', 'PYMODULE'),
  ('ipaddress',
   'C:\\Users\\sspsj\\anaconda3\\envs\\Hw2\\lib\\ipaddress.py',
   'PYMODULE'),
  ('html',
   'C:\\Users\\sspsj\\anaconda3\\envs\\Hw2\\lib\\html\\__init__.py',
   'PYMODULE'),
  ('html.entities',
   'C:\\Users\\sspsj\\anaconda3\\envs\\Hw2\\lib\\html\\entities.py',
   'PYMODULE'),
  ('pydoc_data.topics',
   'C:\\Users\\sspsj\\anaconda3\\envs\\Hw2\\lib\\pydoc_data\\topics.py',
   'PYMODULE'),
  ('pydoc_data',
   'C:\\Users\\sspsj\\anaconda3\\envs\\Hw2\\lib\\pydoc_data\\__init__.py',
   'PYMODULE'),
  ('tty', 'C:\\Users\\sspsj\\anaconda3\\envs\\Hw2\\lib\\tty.py', 'PYMODULE'),
  ('tempfile',
   'C:\\Users\\sspsj\\anaconda3\\envs\\Hw2\\lib\\tempfile.py',
   'PYMODULE'),
  ('urllib.parse',
   'C:\\Users\\sspsj\\anaconda3\\envs\\Hw2\\lib\\urllib\\parse.py',
   'PYMODULE'),
  ('platform',
   'C:\\Users\\sspsj\\anaconda3\\envs\\Hw2\\lib\\platform.py',
   'PYMODULE'),
  ('plistlib',
   'C:\\Users\\sspsj\\anaconda3\\envs\\Hw2\\lib\\plistlib.py',
   'PYMODULE'),
  ('xml.parsers.expat',
   'C:\\Users\\sspsj\\anaconda3\\envs\\Hw2\\lib\\xml\\parsers\\expat.py',
   'PYMODULE'),
  ('xml.parsers',
   'C:\\Users\\sspsj\\anaconda3\\envs\\Hw2\\lib\\xml\\parsers\\__init__.py',
   'PYMODULE'),
  ('xml',
   'C:\\Users\\sspsj\\anaconda3\\envs\\Hw2\\lib\\xml\\__init__.py',
   'PYMODULE'),
  ('xml.sax.expatreader',
   'C:\\Users\\sspsj\\anaconda3\\envs\\Hw2\\lib\\xml\\sax\\expatreader.py',
   'PYMODULE'),
  ('xml.sax.saxutils',
   'C:\\Users\\sspsj\\anaconda3\\envs\\Hw2\\lib\\xml\\sax\\saxutils.py',
   'PYMODULE'),
  ('urllib.request',
   'C:\\Users\\sspsj\\anaconda3\\envs\\Hw2\\lib\\urllib\\request.py',
   'PYMODULE'),
  ('getpass',
   'C:\\Users\\sspsj\\anaconda3\\envs\\Hw2\\lib\\getpass.py',
   'PYMODULE'),
  ('nturl2path',
   'C:\\Users\\sspsj\\anaconda3\\envs\\Hw2\\lib\\nturl2path.py',
   'PYMODULE'),
  ('ftplib',
   'C:\\Users\\sspsj\\anaconda3\\envs\\Hw2\\lib\\ftplib.py',
   'PYMODULE'),
  ('netrc',
   'C:\\Users\\sspsj\\anaconda3\\envs\\Hw2\\lib\\netrc.py',
   'PYMODULE'),
  ('http.cookiejar',
   'C:\\Users\\sspsj\\anaconda3\\envs\\Hw2\\lib\\http\\cookiejar.py',
   'PYMODULE'),
  ('urllib.response',
   'C:\\Users\\sspsj\\anaconda3\\envs\\Hw2\\lib\\urllib\\response.py',
   'PYMODULE'),
  ('urllib.error',
   'C:\\Users\\sspsj\\anaconda3\\envs\\Hw2\\lib\\urllib\\error.py',
   'PYMODULE'),
  ('xml.sax',
   'C:\\Users\\sspsj\\anaconda3\\envs\\Hw2\\lib\\xml\\sax\\__init__.py',
   'PYMODULE'),
  ('xml.sax.handler',
   'C:\\Users\\sspsj\\anaconda3\\envs\\Hw2\\lib\\xml\\sax\\handler.py',
   'PYMODULE'),
  ('xml.sax._exceptions',
   'C:\\Users\\sspsj\\anaconda3\\envs\\Hw2\\lib\\xml\\sax\\_exceptions.py',
   'PYMODULE'),
  ('xml.sax.xmlreader',
   'C:\\Users\\sspsj\\anaconda3\\envs\\Hw2\\lib\\xml\\sax\\xmlreader.py',
   'PYMODULE'),
  ('pkgutil',
   'C:\\Users\\sspsj\\anaconda3\\envs\\Hw2\\lib\\pkgutil.py',
   'PYMODULE'),
  ('importlib',
   'C:\\Users\\sspsj\\anaconda3\\envs\\Hw2\\lib\\importlib\\__init__.py',
   'PYMODULE'),
  ('importlib.abc',
   'C:\\Users\\sspsj\\anaconda3\\envs\\Hw2\\lib\\importlib\\abc.py',
   'PYMODULE'),
  ('importlib.util',
   'C:\\Users\\sspsj\\anaconda3\\envs\\Hw2\\lib\\importlib\\util.py',
   'PYMODULE'),
  ('importlib.machinery',
   'C:\\Users\\sspsj\\anaconda3\\envs\\Hw2\\lib\\importlib\\machinery.py',
   'PYMODULE'),
  ('importlib._bootstrap_external',
   'C:\\Users\\sspsj\\anaconda3\\envs\\Hw2\\lib\\importlib\\_bootstrap_external.py',
   'PYMODULE'),
  ('importlib._bootstrap',
   'C:\\Users\\sspsj\\anaconda3\\envs\\Hw2\\lib\\importlib\\_bootstrap.py',
   'PYMODULE'),
  ('shlex',
   'C:\\Users\\sspsj\\anaconda3\\envs\\Hw2\\lib\\shlex.py',
   'PYMODULE'),
  ('glob', 'C:\\Users\\sspsj\\anaconda3\\envs\\Hw2\\lib\\glob.py', 'PYMODULE'),
  ('code', 'C:\\Users\\sspsj\\anaconda3\\envs\\Hw2\\lib\\code.py', 'PYMODULE'),
  ('codeop',
   'C:\\Users\\sspsj\\anaconda3\\envs\\Hw2\\lib\\codeop.py',
   'PYMODULE'),
  ('dis', 'C:\\Users\\sspsj\\anaconda3\\envs\\Hw2\\lib\\dis.py', 'PYMODULE'),
  ('opcode',
   'C:\\Users\\sspsj\\anaconda3\\envs\\Hw2\\lib\\opcode.py',
   'PYMODULE'),
  ('bdb', 'C:\\Users\\sspsj\\anaconda3\\envs\\Hw2\\lib\\bdb.py', 'PYMODULE'),
  ('cmd', 'C:\\Users\\sspsj\\anaconda3\\envs\\Hw2\\lib\\cmd.py', 'PYMODULE'),
  ('inspect',
   'C:\\Users\\sspsj\\anaconda3\\envs\\Hw2\\lib\\inspect.py',
   'PYMODULE'),
  ('ast', 'C:\\Users\\sspsj\\anaconda3\\envs\\Hw2\\lib\\ast.py', 'PYMODULE'),
  ('difflib',
   'C:\\Users\\sspsj\\anaconda3\\envs\\Hw2\\lib\\difflib.py',
   'PYMODULE'),
  ('__future__',
   'C:\\Users\\sspsj\\anaconda3\\envs\\Hw2\\lib\\__future__.py',
   'PYMODULE'),
  ('_compat_pickle',
   'C:\\Users\\sspsj\\anaconda3\\envs\\Hw2\\lib\\_compat_pickle.py',
   'PYMODULE'),
  ('fnmatch',
   'C:\\Users\\sspsj\\anaconda3\\envs\\Hw2\\lib\\fnmatch.py',
   'PYMODULE'),
  ('stringprep',
   'C:\\Users\\sspsj\\anaconda3\\envs\\Hw2\\lib\\stringprep.py',
   'PYMODULE'),
  ('PIL.ImageTk',
   'C:\\Users\\sspsj\\anaconda3\\envs\\Hw2\\lib\\site-packages\\PIL\\ImageTk.py',
   'PYMODULE'),
  ('PIL.Image',
   'C:\\Users\\sspsj\\anaconda3\\envs\\Hw2\\lib\\site-packages\\PIL\\Image.py',
   'PYMODULE'),
  ('PIL.XbmImagePlugin',
   'C:\\Users\\sspsj\\anaconda3\\envs\\Hw2\\lib\\site-packages\\PIL\\XbmImagePlugin.py',
   'PYMODULE'),
  ('PIL.ImageFile',
   'C:\\Users\\sspsj\\anaconda3\\envs\\Hw2\\lib\\site-packages\\PIL\\ImageFile.py',
   'PYMODULE'),
  ('PIL.SgiImagePlugin',
   'C:\\Users\\sspsj\\anaconda3\\envs\\Hw2\\lib\\site-packages\\PIL\\SgiImagePlugin.py',
   'PYMODULE'),
  ('PIL.ImtImagePlugin',
   'C:\\Users\\sspsj\\anaconda3\\envs\\Hw2\\lib\\site-packages\\PIL\\ImtImagePlugin.py',
   'PYMODULE'),
  ('PIL.PcxImagePlugin',
   'C:\\Users\\sspsj\\anaconda3\\envs\\Hw2\\lib\\site-packages\\PIL\\PcxImagePlugin.py',
   'PYMODULE'),
  ('PIL.CurImagePlugin',
   'C:\\Users\\sspsj\\anaconda3\\envs\\Hw2\\lib\\site-packages\\PIL\\CurImagePlugin.py',
   'PYMODULE'),
  ('PIL.IcoImagePlugin',
   'C:\\Users\\sspsj\\anaconda3\\envs\\Hw2\\lib\\site-packages\\PIL\\IcoImagePlugin.py',
   'PYMODULE'),
  ('PIL.MpoImagePlugin',
   'C:\\Users\\sspsj\\anaconda3\\envs\\Hw2\\lib\\site-packages\\PIL\\MpoImagePlugin.py',
   'PYMODULE'),
  ('PIL.DcxImagePlugin',
   'C:\\Users\\sspsj\\anaconda3\\envs\\Hw2\\lib\\site-packages\\PIL\\DcxImagePlugin.py',
   'PYMODULE'),
  ('PIL.IcnsImagePlugin',
   'C:\\Users\\sspsj\\anaconda3\\envs\\Hw2\\lib\\site-packages\\PIL\\IcnsImagePlugin.py',
   'PYMODULE'),
  ('PIL.features',
   'C:\\Users\\sspsj\\anaconda3\\envs\\Hw2\\lib\\site-packages\\PIL\\features.py',
   'PYMODULE'),
  ('PIL.Hdf5StubImagePlugin',
   'C:\\Users\\sspsj\\anaconda3\\envs\\Hw2\\lib\\site-packages\\PIL\\Hdf5StubImagePlugin.py',
   'PYMODULE'),
  ('PIL.PixarImagePlugin',
   'C:\\Users\\sspsj\\anaconda3\\envs\\Hw2\\lib\\site-packages\\PIL\\PixarImagePlugin.py',
   'PYMODULE'),
  ('PIL.BufrStubImagePlugin',
   'C:\\Users\\sspsj\\anaconda3\\envs\\Hw2\\lib\\site-packages\\PIL\\BufrStubImagePlugin.py',
   'PYMODULE'),
  ('PIL.FtexImagePlugin',
   'C:\\Users\\sspsj\\anaconda3\\envs\\Hw2\\lib\\site-packages\\PIL\\FtexImagePlugin.py',
   'PYMODULE'),
  ('PIL.MpegImagePlugin',
   'C:\\Users\\sspsj\\anaconda3\\envs\\Hw2\\lib\\site-packages\\PIL\\MpegImagePlugin.py',
   'PYMODULE'),
  ('PIL.SpiderImagePlugin',
   'C:\\Users\\sspsj\\anaconda3\\envs\\Hw2\\lib\\site-packages\\PIL\\SpiderImagePlugin.py',
   'PYMODULE'),
  ('PIL.DdsImagePlugin',
   'C:\\Users\\sspsj\\anaconda3\\envs\\Hw2\\lib\\site-packages\\PIL\\DdsImagePlugin.py',
   'PYMODULE'),
  ('PIL.PdfImagePlugin',
   'C:\\Users\\sspsj\\anaconda3\\envs\\Hw2\\lib\\site-packages\\PIL\\PdfImagePlugin.py',
   'PYMODULE'),
  ('PIL.PdfParser',
   'C:\\Users\\sspsj\\anaconda3\\envs\\Hw2\\lib\\site-packages\\PIL\\PdfParser.py',
   'PYMODULE'),
  ('PIL.ImageSequence',
   'C:\\Users\\sspsj\\anaconda3\\envs\\Hw2\\lib\\site-packages\\PIL\\ImageSequence.py',
   'PYMODULE'),
  ('PIL.BlpImagePlugin',
   'C:\\Users\\sspsj\\anaconda3\\envs\\Hw2\\lib\\site-packages\\PIL\\BlpImagePlugin.py',
   'PYMODULE'),
  ('PIL.GribStubImagePlugin',
   'C:\\Users\\sspsj\\anaconda3\\envs\\Hw2\\lib\\site-packages\\PIL\\GribStubImagePlugin.py',
   'PYMODULE'),
  ('PIL.FpxImagePlugin',
   'C:\\Users\\sspsj\\anaconda3\\envs\\Hw2\\lib\\site-packages\\PIL\\FpxImagePlugin.py',
   'PYMODULE'),
  ('olefile',
   'C:\\Users\\sspsj\\anaconda3\\envs\\Hw2\\lib\\site-packages\\olefile\\__init__.py',
   'PYMODULE'),
  ('olefile.olefile',
   'C:\\Users\\sspsj\\anaconda3\\envs\\Hw2\\lib\\site-packages\\olefile\\olefile.py',
   'PYMODULE'),
  ('PIL.MicImagePlugin',
   'C:\\Users\\sspsj\\anaconda3\\envs\\Hw2\\lib\\site-packages\\PIL\\MicImagePlugin.py',
   'PYMODULE'),
  ('PIL.McIdasImagePlugin',
   'C:\\Users\\sspsj\\anaconda3\\envs\\Hw2\\lib\\site-packages\\PIL\\McIdasImagePlugin.py',
   'PYMODULE'),
  ('PIL.ImImagePlugin',
   'C:\\Users\\sspsj\\anaconda3\\envs\\Hw2\\lib\\site-packages\\PIL\\ImImagePlugin.py',
   'PYMODULE'),
  ('PIL.FliImagePlugin',
   'C:\\Users\\sspsj\\anaconda3\\envs\\Hw2\\lib\\site-packages\\PIL\\FliImagePlugin.py',
   'PYMODULE'),
  ('PIL.TgaImagePlugin',
   'C:\\Users\\sspsj\\anaconda3\\envs\\Hw2\\lib\\site-packages\\PIL\\TgaImagePlugin.py',
   'PYMODULE'),
  ('PIL.PcdImagePlugin',
   'C:\\Users\\sspsj\\anaconda3\\envs\\Hw2\\lib\\site-packages\\PIL\\PcdImagePlugin.py',
   'PYMODULE'),
  ('PIL.IptcImagePlugin',
   'C:\\Users\\sspsj\\anaconda3\\envs\\Hw2\\lib\\site-packages\\PIL\\IptcImagePlugin.py',
   'PYMODULE'),
  ('PIL.MspImagePlugin',
   'C:\\Users\\sspsj\\anaconda3\\envs\\Hw2\\lib\\site-packages\\PIL\\MspImagePlugin.py',
   'PYMODULE'),
  ('PIL.EpsImagePlugin',
   'C:\\Users\\sspsj\\anaconda3\\envs\\Hw2\\lib\\site-packages\\PIL\\EpsImagePlugin.py',
   'PYMODULE'),
  ('PIL.Jpeg2KImagePlugin',
   'C:\\Users\\sspsj\\anaconda3\\envs\\Hw2\\lib\\site-packages\\PIL\\Jpeg2KImagePlugin.py',
   'PYMODULE'),
  ('PIL.PsdImagePlugin',
   'C:\\Users\\sspsj\\anaconda3\\envs\\Hw2\\lib\\site-packages\\PIL\\PsdImagePlugin.py',
   'PYMODULE'),
  ('PIL.XpmImagePlugin',
   'C:\\Users\\sspsj\\anaconda3\\envs\\Hw2\\lib\\site-packages\\PIL\\XpmImagePlugin.py',
   'PYMODULE'),
  ('PIL.WmfImagePlugin',
   'C:\\Users\\sspsj\\anaconda3\\envs\\Hw2\\lib\\site-packages\\PIL\\WmfImagePlugin.py',
   'PYMODULE'),
  ('PIL.XVThumbImagePlugin',
   'C:\\Users\\sspsj\\anaconda3\\envs\\Hw2\\lib\\site-packages\\PIL\\XVThumbImagePlugin.py',
   'PYMODULE'),
  ('PIL.WebPImagePlugin',
   'C:\\Users\\sspsj\\anaconda3\\envs\\Hw2\\lib\\site-packages\\PIL\\WebPImagePlugin.py',
   'PYMODULE'),
  ('PIL.FitsStubImagePlugin',
   'C:\\Users\\sspsj\\anaconda3\\envs\\Hw2\\lib\\site-packages\\PIL\\FitsStubImagePlugin.py',
   'PYMODULE'),
  ('PIL.SunImagePlugin',
   'C:\\Users\\sspsj\\anaconda3\\envs\\Hw2\\lib\\site-packages\\PIL\\SunImagePlugin.py',
   'PYMODULE'),
  ('PIL.GbrImagePlugin',
   'C:\\Users\\sspsj\\anaconda3\\envs\\Hw2\\lib\\site-packages\\PIL\\GbrImagePlugin.py',
   'PYMODULE'),
  ('PIL.PalmImagePlugin',
   'C:\\Users\\sspsj\\anaconda3\\envs\\Hw2\\lib\\site-packages\\PIL\\PalmImagePlugin.py',
   'PYMODULE'),
  ('PIL.TiffImagePlugin',
   'C:\\Users\\sspsj\\anaconda3\\envs\\Hw2\\lib\\site-packages\\PIL\\TiffImagePlugin.py',
   'PYMODULE'),
  ('fractions',
   'C:\\Users\\sspsj\\anaconda3\\envs\\Hw2\\lib\\fractions.py',
   'PYMODULE'),
  ('decimal',
   'C:\\Users\\sspsj\\anaconda3\\envs\\Hw2\\lib\\decimal.py',
   'PYMODULE'),
  ('_pydecimal',
   'C:\\Users\\sspsj\\anaconda3\\envs\\Hw2\\lib\\_pydecimal.py',
   'PYMODULE'),
  ('PIL.ImageShow',
   'C:\\Users\\sspsj\\anaconda3\\envs\\Hw2\\lib\\site-packages\\PIL\\ImageShow.py',
   'PYMODULE'),
  ('PIL.ImageQt',
   'C:\\Users\\sspsj\\anaconda3\\envs\\Hw2\\lib\\site-packages\\PIL\\ImageQt.py',
   'PYMODULE'),
  ('PIL.ImageColor',
   'C:\\Users\\sspsj\\anaconda3\\envs\\Hw2\\lib\\site-packages\\PIL\\ImageColor.py',
   'PYMODULE'),
  ('colorsys',
   'C:\\Users\\sspsj\\anaconda3\\envs\\Hw2\\lib\\colorsys.py',
   'PYMODULE'),
  ('PIL.ImageFilter',
   'C:\\Users\\sspsj\\anaconda3\\envs\\Hw2\\lib\\site-packages\\PIL\\ImageFilter.py',
   'PYMODULE'),
  ('PIL.PyAccess',
   'C:\\Users\\sspsj\\anaconda3\\envs\\Hw2\\lib\\site-packages\\PIL\\PyAccess.py',
   'PYMODULE'),
  ('PIL.ImagePalette',
   'C:\\Users\\sspsj\\anaconda3\\envs\\Hw2\\lib\\site-packages\\PIL\\ImagePalette.py',
   'PYMODULE'),
  ('PIL.PaletteFile',
   'C:\\Users\\sspsj\\anaconda3\\envs\\Hw2\\lib\\site-packages\\PIL\\PaletteFile.py',
   'PYMODULE'),
  ('PIL.GimpPaletteFile',
   'C:\\Users\\sspsj\\anaconda3\\envs\\Hw2\\lib\\site-packages\\PIL\\GimpPaletteFile.py',
   'PYMODULE'),
  ('PIL.GimpGradientFile',
   'C:\\Users\\sspsj\\anaconda3\\envs\\Hw2\\lib\\site-packages\\PIL\\GimpGradientFile.py',
   'PYMODULE'),
  ('PIL.PngImagePlugin',
   'C:\\Users\\sspsj\\anaconda3\\envs\\Hw2\\lib\\site-packages\\PIL\\PngImagePlugin.py',
   'PYMODULE'),
  ('PIL.ImageChops',
   'C:\\Users\\sspsj\\anaconda3\\envs\\Hw2\\lib\\site-packages\\PIL\\ImageChops.py',
   'PYMODULE'),
  ('PIL.PpmImagePlugin',
   'C:\\Users\\sspsj\\anaconda3\\envs\\Hw2\\lib\\site-packages\\PIL\\PpmImagePlugin.py',
   'PYMODULE'),
  ('PIL.JpegImagePlugin',
   'C:\\Users\\sspsj\\anaconda3\\envs\\Hw2\\lib\\site-packages\\PIL\\JpegImagePlugin.py',
   'PYMODULE'),
  ('PIL.JpegPresets',
   'C:\\Users\\sspsj\\anaconda3\\envs\\Hw2\\lib\\site-packages\\PIL\\JpegPresets.py',
   'PYMODULE'),
  ('PIL.GifImagePlugin',
   'C:\\Users\\sspsj\\anaconda3\\envs\\Hw2\\lib\\site-packages\\PIL\\GifImagePlugin.py',
   'PYMODULE'),
  ('PIL.BmpImagePlugin',
   'C:\\Users\\sspsj\\anaconda3\\envs\\Hw2\\lib\\site-packages\\PIL\\BmpImagePlugin.py',
   'PYMODULE'),
  ('PIL._util',
   'C:\\Users\\sspsj\\anaconda3\\envs\\Hw2\\lib\\site-packages\\PIL\\_util.py',
   'PYMODULE'),
  ('PIL._binary',
   'C:\\Users\\sspsj\\anaconda3\\envs\\Hw2\\lib\\site-packages\\PIL\\_binary.py',
   'PYMODULE'),
  ('PIL.TiffTags',
   'C:\\Users\\sspsj\\anaconda3\\envs\\Hw2\\lib\\site-packages\\PIL\\TiffTags.py',
   'PYMODULE'),
  ('PIL.ImageMode',
   'C:\\Users\\sspsj\\anaconda3\\envs\\Hw2\\lib\\site-packages\\PIL\\ImageMode.py',
   'PYMODULE'),
  ('pathlib',
   'C:\\Users\\sspsj\\anaconda3\\envs\\Hw2\\lib\\pathlib.py',
   'PYMODULE'),
  ('xml.etree.ElementTree',
   'C:\\Users\\sspsj\\anaconda3\\envs\\Hw2\\lib\\xml\\etree\\ElementTree.py',
   'PYMODULE'),
  ('xml.etree.cElementTree',
   'C:\\Users\\sspsj\\anaconda3\\envs\\Hw2\\lib\\xml\\etree\\cElementTree.py',
   'PYMODULE'),
  ('xml.etree.ElementInclude',
   'C:\\Users\\sspsj\\anaconda3\\envs\\Hw2\\lib\\xml\\etree\\ElementInclude.py',
   'PYMODULE'),
  ('xml.etree.ElementPath',
   'C:\\Users\\sspsj\\anaconda3\\envs\\Hw2\\lib\\xml\\etree\\ElementPath.py',
   'PYMODULE'),
  ('xml.etree',
   'C:\\Users\\sspsj\\anaconda3\\envs\\Hw2\\lib\\xml\\etree\\__init__.py',
   'PYMODULE'),
  ('numbers',
   'C:\\Users\\sspsj\\anaconda3\\envs\\Hw2\\lib\\numbers.py',
   'PYMODULE'),
  ('PIL',
   'C:\\Users\\sspsj\\anaconda3\\envs\\Hw2\\lib\\site-packages\\PIL\\__init__.py',
   'PYMODULE'),
  ('PIL._version',
   'C:\\Users\\sspsj\\anaconda3\\envs\\Hw2\\lib\\site-packages\\PIL\\_version.py',
   'PYMODULE'),
  ('tkinter.filedialog',
   'C:\\Users\\sspsj\\anaconda3\\envs\\Hw2\\lib\\tkinter\\filedialog.py',
   'PYMODULE'),
  ('tkinter.commondialog',
   'C:\\Users\\sspsj\\anaconda3\\envs\\Hw2\\lib\\tkinter\\commondialog.py',
   'PYMODULE'),
  ('tkinter.dialog',
   'C:\\Users\\sspsj\\anaconda3\\envs\\Hw2\\lib\\tkinter\\dialog.py',
   'PYMODULE'),
  ('tkinter',
   'C:\\Users\\sspsj\\anaconda3\\envs\\Hw2\\lib\\tkinter\\__init__.py',
   'PYMODULE'),
  ('tkinter.constants',
   'C:\\Users\\sspsj\\anaconda3\\envs\\Hw2\\lib\\tkinter\\constants.py',
   'PYMODULE')])
