('C:\\Users\\sspsj\\PycharmProjects\\pythonProject\\build\\HW560947047S\\PYZ-00.pyz',
 [('os', 'C:\\Users\\sspsj\\anaconda3\\envs\\Hw1\\lib\\os.py', 'PYMODULE'),
  ('subprocess',
   'C:\\Users\\sspsj\\anaconda3\\envs\\Hw1\\lib\\subprocess.py',
   'PYMODULE'),
  ('dummy_threading',
   'C:\\Users\\sspsj\\anaconda3\\envs\\Hw1\\lib\\dummy_threading.py',
   'PYMODULE'),
  ('_dummy_thread',
   'C:\\Users\\sspsj\\anaconda3\\envs\\Hw1\\lib\\_dummy_thread.py',
   'PYMODULE'),
  ('selectors',
   'C:\\Users\\sspsj\\anaconda3\\envs\\Hw1\\lib\\selectors.py',
   'PYMODULE'),
  ('threading',
   'C:\\Users\\sspsj\\anaconda3\\envs\\Hw1\\lib\\threading.py',
   'PYMODULE'),
  ('_threading_local',
   'C:\\Users\\sspsj\\anaconda3\\envs\\Hw1\\lib\\_threading_local.py',
   'PYMODULE'),
  ('contextlib',
   'C:\\Users\\sspsj\\anaconda3\\envs\\Hw1\\lib\\contextlib.py',
   'PYMODULE'),
  ('signal',
   'C:\\Users\\sspsj\\anaconda3\\envs\\Hw1\\lib\\signal.py',
   'PYMODULE'),
  ('_strptime',
   'C:\\Users\\sspsj\\anaconda3\\envs\\Hw1\\lib\\_strptime.py',
   'PYMODULE'),
  ('datetime',
   'C:\\Users\\sspsj\\anaconda3\\envs\\Hw1\\lib\\datetime.py',
   'PYMODULE'),
  ('calendar',
   'C:\\Users\\sspsj\\anaconda3\\envs\\Hw1\\lib\\calendar.py',
   'PYMODULE'),
  ('argparse',
   'C:\\Users\\sspsj\\anaconda3\\envs\\Hw1\\lib\\argparse.py',
   'PYMODULE'),
  ('gettext',
   'C:\\Users\\sspsj\\anaconda3\\envs\\Hw1\\lib\\gettext.py',
   'PYMODULE'),
  ('struct',
   'C:\\Users\\sspsj\\anaconda3\\envs\\Hw1\\lib\\struct.py',
   'PYMODULE'),
  ('textwrap',
   'C:\\Users\\sspsj\\anaconda3\\envs\\Hw1\\lib\\textwrap.py',
   'PYMODULE'),
  ('copy', 'C:\\Users\\sspsj\\anaconda3\\envs\\Hw1\\lib\\copy.py', 'PYMODULE'),
  ('ntpath',
   'C:\\Users\\sspsj\\anaconda3\\envs\\Hw1\\lib\\ntpath.py',
   'PYMODULE'),
  ('string',
   'C:\\Users\\sspsj\\anaconda3\\envs\\Hw1\\lib\\string.py',
   'PYMODULE'),
  ('genericpath',
   'C:\\Users\\sspsj\\anaconda3\\envs\\Hw1\\lib\\genericpath.py',
   'PYMODULE'),
  ('posixpath',
   'C:\\Users\\sspsj\\anaconda3\\envs\\Hw1\\lib\\posixpath.py',
   'PYMODULE'),
  ('stat', 'C:\\Users\\sspsj\\anaconda3\\envs\\Hw1\\lib\\stat.py', 'PYMODULE'),
  ('multiprocessing.popen_fork',
   'C:\\Users\\sspsj\\anaconda3\\envs\\Hw1\\lib\\multiprocessing\\popen_fork.py',
   'PYMODULE'),
  ('multiprocessing.connection',
   'C:\\Users\\sspsj\\anaconda3\\envs\\Hw1\\lib\\multiprocessing\\connection.py',
   'PYMODULE'),
  ('multiprocessing.resource_sharer',
   'C:\\Users\\sspsj\\anaconda3\\envs\\Hw1\\lib\\multiprocessing\\resource_sharer.py',
   'PYMODULE'),
  ('multiprocessing.process',
   'C:\\Users\\sspsj\\anaconda3\\envs\\Hw1\\lib\\multiprocessing\\process.py',
   'PYMODULE'),
  ('xmlrpc.client',
   'C:\\Users\\sspsj\\anaconda3\\envs\\Hw1\\lib\\xmlrpc\\client.py',
   'PYMODULE'),
  ('xmlrpc',
   'C:\\Users\\sspsj\\anaconda3\\envs\\Hw1\\lib\\xmlrpc\\__init__.py',
   'PYMODULE'),
  ('gzip', 'C:\\Users\\sspsj\\anaconda3\\envs\\Hw1\\lib\\gzip.py', 'PYMODULE'),
  ('_compression',
   'C:\\Users\\sspsj\\anaconda3\\envs\\Hw1\\lib\\_compression.py',
   'PYMODULE'),
  ('xml.parsers.expat',
   'C:\\Users\\sspsj\\anaconda3\\envs\\Hw1\\lib\\xml\\parsers\\expat.py',
   'PYMODULE'),
  ('xml.parsers',
   'C:\\Users\\sspsj\\anaconda3\\envs\\Hw1\\lib\\xml\\parsers\\__init__.py',
   'PYMODULE'),
  ('xml',
   'C:\\Users\\sspsj\\anaconda3\\envs\\Hw1\\lib\\xml\\__init__.py',
   'PYMODULE'),
  ('xml.sax.expatreader',
   'C:\\Users\\sspsj\\anaconda3\\envs\\Hw1\\lib\\xml\\sax\\expatreader.py',
   'PYMODULE'),
  ('xml.sax.saxutils',
   'C:\\Users\\sspsj\\anaconda3\\envs\\Hw1\\lib\\xml\\sax\\saxutils.py',
   'PYMODULE'),
  ('urllib.request',
   'C:\\Users\\sspsj\\anaconda3\\envs\\Hw1\\lib\\urllib\\request.py',
   'PYMODULE'),
  ('fnmatch',
   'C:\\Users\\sspsj\\anaconda3\\envs\\Hw1\\lib\\fnmatch.py',
   'PYMODULE'),
  ('getpass',
   'C:\\Users\\sspsj\\anaconda3\\envs\\Hw1\\lib\\getpass.py',
   'PYMODULE'),
  ('nturl2path',
   'C:\\Users\\sspsj\\anaconda3\\envs\\Hw1\\lib\\nturl2path.py',
   'PYMODULE'),
  ('ftplib',
   'C:\\Users\\sspsj\\anaconda3\\envs\\Hw1\\lib\\ftplib.py',
   'PYMODULE'),
  ('netrc',
   'C:\\Users\\sspsj\\anaconda3\\envs\\Hw1\\lib\\netrc.py',
   'PYMODULE'),
  ('shlex',
   'C:\\Users\\sspsj\\anaconda3\\envs\\Hw1\\lib\\shlex.py',
   'PYMODULE'),
  ('mimetypes',
   'C:\\Users\\sspsj\\anaconda3\\envs\\Hw1\\lib\\mimetypes.py',
   'PYMODULE'),
  ('getopt',
   'C:\\Users\\sspsj\\anaconda3\\envs\\Hw1\\lib\\getopt.py',
   'PYMODULE'),
  ('email.utils',
   'C:\\Users\\sspsj\\anaconda3\\envs\\Hw1\\lib\\email\\utils.py',
   'PYMODULE'),
  ('email.charset',
   'C:\\Users\\sspsj\\anaconda3\\envs\\Hw1\\lib\\email\\charset.py',
   'PYMODULE'),
  ('email.encoders',
   'C:\\Users\\sspsj\\anaconda3\\envs\\Hw1\\lib\\email\\encoders.py',
   'PYMODULE'),
  ('quopri',
   'C:\\Users\\sspsj\\anaconda3\\envs\\Hw1\\lib\\quopri.py',
   'PYMODULE'),
  ('email.errors',
   'C:\\Users\\sspsj\\anaconda3\\envs\\Hw1\\lib\\email\\errors.py',
   'PYMODULE'),
  ('email.quoprimime',
   'C:\\Users\\sspsj\\anaconda3\\envs\\Hw1\\lib\\email\\quoprimime.py',
   'PYMODULE'),
  ('email.base64mime',
   'C:\\Users\\sspsj\\anaconda3\\envs\\Hw1\\lib\\email\\base64mime.py',
   'PYMODULE'),
  ('email._parseaddr',
   'C:\\Users\\sspsj\\anaconda3\\envs\\Hw1\\lib\\email\\_parseaddr.py',
   'PYMODULE'),
  ('http.cookiejar',
   'C:\\Users\\sspsj\\anaconda3\\envs\\Hw1\\lib\\http\\cookiejar.py',
   'PYMODULE'),
  ('http',
   'C:\\Users\\sspsj\\anaconda3\\envs\\Hw1\\lib\\http\\__init__.py',
   'PYMODULE'),
  ('logging',
   'C:\\Users\\sspsj\\anaconda3\\envs\\Hw1\\lib\\logging\\__init__.py',
   'PYMODULE'),
  ('urllib',
   'C:\\Users\\sspsj\\anaconda3\\envs\\Hw1\\lib\\urllib\\__init__.py',
   'PYMODULE'),
  ('ssl', 'C:\\Users\\sspsj\\anaconda3\\envs\\Hw1\\lib\\ssl.py', 'PYMODULE'),
  ('ipaddress',
   'C:\\Users\\sspsj\\anaconda3\\envs\\Hw1\\lib\\ipaddress.py',
   'PYMODULE'),
  ('urllib.response',
   'C:\\Users\\sspsj\\anaconda3\\envs\\Hw1\\lib\\urllib\\response.py',
   'PYMODULE'),
  ('urllib.error',
   'C:\\Users\\sspsj\\anaconda3\\envs\\Hw1\\lib\\urllib\\error.py',
   'PYMODULE'),
  ('hashlib',
   'C:\\Users\\sspsj\\anaconda3\\envs\\Hw1\\lib\\hashlib.py',
   'PYMODULE'),
  ('email',
   'C:\\Users\\sspsj\\anaconda3\\envs\\Hw1\\lib\\email\\__init__.py',
   'PYMODULE'),
  ('email.parser',
   'C:\\Users\\sspsj\\anaconda3\\envs\\Hw1\\lib\\email\\parser.py',
   'PYMODULE'),
  ('email._policybase',
   'C:\\Users\\sspsj\\anaconda3\\envs\\Hw1\\lib\\email\\_policybase.py',
   'PYMODULE'),
  ('email.feedparser',
   'C:\\Users\\sspsj\\anaconda3\\envs\\Hw1\\lib\\email\\feedparser.py',
   'PYMODULE'),
  ('email.message',
   'C:\\Users\\sspsj\\anaconda3\\envs\\Hw1\\lib\\email\\message.py',
   'PYMODULE'),
  ('email.policy',
   'C:\\Users\\sspsj\\anaconda3\\envs\\Hw1\\lib\\email\\policy.py',
   'PYMODULE'),
  ('email.contentmanager',
   'C:\\Users\\sspsj\\anaconda3\\envs\\Hw1\\lib\\email\\contentmanager.py',
   'PYMODULE'),
  ('email.headerregistry',
   'C:\\Users\\sspsj\\anaconda3\\envs\\Hw1\\lib\\email\\headerregistry.py',
   'PYMODULE'),
  ('email.iterators',
   'C:\\Users\\sspsj\\anaconda3\\envs\\Hw1\\lib\\email\\iterators.py',
   'PYMODULE'),
  ('email.generator',
   'C:\\Users\\sspsj\\anaconda3\\envs\\Hw1\\lib\\email\\generator.py',
   'PYMODULE'),
  ('email._encoded_words',
   'C:\\Users\\sspsj\\anaconda3\\envs\\Hw1\\lib\\email\\_encoded_words.py',
   'PYMODULE'),
  ('uu', 'C:\\Users\\sspsj\\anaconda3\\envs\\Hw1\\lib\\uu.py', 'PYMODULE'),
  ('optparse',
   'C:\\Users\\sspsj\\anaconda3\\envs\\Hw1\\lib\\optparse.py',
   'PYMODULE'),
  ('email._header_value_parser',
   'C:\\Users\\sspsj\\anaconda3\\envs\\Hw1\\lib\\email\\_header_value_parser.py',
   'PYMODULE'),
  ('email.header',
   'C:\\Users\\sspsj\\anaconda3\\envs\\Hw1\\lib\\email\\header.py',
   'PYMODULE'),
  ('bisect',
   'C:\\Users\\sspsj\\anaconda3\\envs\\Hw1\\lib\\bisect.py',
   'PYMODULE'),
  ('xml.sax',
   'C:\\Users\\sspsj\\anaconda3\\envs\\Hw1\\lib\\xml\\sax\\__init__.py',
   'PYMODULE'),
  ('xml.sax.handler',
   'C:\\Users\\sspsj\\anaconda3\\envs\\Hw1\\lib\\xml\\sax\\handler.py',
   'PYMODULE'),
  ('xml.sax._exceptions',
   'C:\\Users\\sspsj\\anaconda3\\envs\\Hw1\\lib\\xml\\sax\\_exceptions.py',
   'PYMODULE'),
  ('xml.sax.xmlreader',
   'C:\\Users\\sspsj\\anaconda3\\envs\\Hw1\\lib\\xml\\sax\\xmlreader.py',
   'PYMODULE'),
  ('urllib.parse',
   'C:\\Users\\sspsj\\anaconda3\\envs\\Hw1\\lib\\urllib\\parse.py',
   'PYMODULE'),
  ('http.client',
   'C:\\Users\\sspsj\\anaconda3\\envs\\Hw1\\lib\\http\\client.py',
   'PYMODULE'),
  ('decimal',
   'C:\\Users\\sspsj\\anaconda3\\envs\\Hw1\\lib\\decimal.py',
   'PYMODULE'),
  ('_pydecimal',
   'C:\\Users\\sspsj\\anaconda3\\envs\\Hw1\\lib\\_pydecimal.py',
   'PYMODULE'),
  ('numbers',
   'C:\\Users\\sspsj\\anaconda3\\envs\\Hw1\\lib\\numbers.py',
   'PYMODULE'),
  ('base64',
   'C:\\Users\\sspsj\\anaconda3\\envs\\Hw1\\lib\\base64.py',
   'PYMODULE'),
  ('hmac', 'C:\\Users\\sspsj\\anaconda3\\envs\\Hw1\\lib\\hmac.py', 'PYMODULE'),
  ('multiprocessing.context',
   'C:\\Users\\sspsj\\anaconda3\\envs\\Hw1\\lib\\multiprocessing\\context.py',
   'PYMODULE'),
  ('multiprocessing.popen_forkserver',
   'C:\\Users\\sspsj\\anaconda3\\envs\\Hw1\\lib\\multiprocessing\\popen_forkserver.py',
   'PYMODULE'),
  ('multiprocessing.popen_spawn_posix',
   'C:\\Users\\sspsj\\anaconda3\\envs\\Hw1\\lib\\multiprocessing\\popen_spawn_posix.py',
   'PYMODULE'),
  ('multiprocessing.semaphore_tracker',
   'C:\\Users\\sspsj\\anaconda3\\envs\\Hw1\\lib\\multiprocessing\\semaphore_tracker.py',
   'PYMODULE'),
  ('multiprocessing.forkserver',
   'C:\\Users\\sspsj\\anaconda3\\envs\\Hw1\\lib\\multiprocessing\\forkserver.py',
   'PYMODULE'),
  ('multiprocessing.sharedctypes',
   'C:\\Users\\sspsj\\anaconda3\\envs\\Hw1\\lib\\multiprocessing\\sharedctypes.py',
   'PYMODULE'),
  ('multiprocessing.heap',
   'C:\\Users\\sspsj\\anaconda3\\envs\\Hw1\\lib\\multiprocessing\\heap.py',
   'PYMODULE'),
  ('ctypes',
   'C:\\Users\\sspsj\\anaconda3\\envs\\Hw1\\lib\\ctypes\\__init__.py',
   'PYMODULE'),
  ('ctypes._endian',
   'C:\\Users\\sspsj\\anaconda3\\envs\\Hw1\\lib\\ctypes\\_endian.py',
   'PYMODULE'),
  ('multiprocessing.pool',
   'C:\\Users\\sspsj\\anaconda3\\envs\\Hw1\\lib\\multiprocessing\\pool.py',
   'PYMODULE'),
  ('multiprocessing.dummy',
   'C:\\Users\\sspsj\\anaconda3\\envs\\Hw1\\lib\\multiprocessing\\dummy\\__init__.py',
   'PYMODULE'),
  ('multiprocessing.dummy.connection',
   'C:\\Users\\sspsj\\anaconda3\\envs\\Hw1\\lib\\multiprocessing\\dummy\\connection.py',
   'PYMODULE'),
  ('queue',
   'C:\\Users\\sspsj\\anaconda3\\envs\\Hw1\\lib\\queue.py',
   'PYMODULE'),
  ('multiprocessing.queues',
   'C:\\Users\\sspsj\\anaconda3\\envs\\Hw1\\lib\\multiprocessing\\queues.py',
   'PYMODULE'),
  ('multiprocessing.synchronize',
   'C:\\Users\\sspsj\\anaconda3\\envs\\Hw1\\lib\\multiprocessing\\synchronize.py',
   'PYMODULE'),
  ('multiprocessing.managers',
   'C:\\Users\\sspsj\\anaconda3\\envs\\Hw1\\lib\\multiprocessing\\managers.py',
   'PYMODULE'),
  ('multiprocessing.reduction',
   'C:\\Users\\sspsj\\anaconda3\\envs\\Hw1\\lib\\multiprocessing\\reduction.py',
   'PYMODULE'),
  ('pickle',
   'C:\\Users\\sspsj\\anaconda3\\envs\\Hw1\\lib\\pickle.py',
   'PYMODULE'),
  ('pprint',
   'C:\\Users\\sspsj\\anaconda3\\envs\\Hw1\\lib\\pprint.py',
   'PYMODULE'),
  ('doctest',
   'C:\\Users\\sspsj\\anaconda3\\envs\\Hw1\\lib\\doctest.py',
   'PYMODULE'),
  ('unittest',
   'C:\\Users\\sspsj\\anaconda3\\envs\\Hw1\\lib\\unittest\\__init__.py',
   'PYMODULE'),
  ('unittest.signals',
   'C:\\Users\\sspsj\\anaconda3\\envs\\Hw1\\lib\\unittest\\signals.py',
   'PYMODULE'),
  ('unittest.main',
   'C:\\Users\\sspsj\\anaconda3\\envs\\Hw1\\lib\\unittest\\main.py',
   'PYMODULE'),
  ('unittest.runner',
   'C:\\Users\\sspsj\\anaconda3\\envs\\Hw1\\lib\\unittest\\runner.py',
   'PYMODULE'),
  ('unittest.loader',
   'C:\\Users\\sspsj\\anaconda3\\envs\\Hw1\\lib\\unittest\\loader.py',
   'PYMODULE'),
  ('unittest.suite',
   'C:\\Users\\sspsj\\anaconda3\\envs\\Hw1\\lib\\unittest\\suite.py',
   'PYMODULE'),
  ('unittest.case',
   'C:\\Users\\sspsj\\anaconda3\\envs\\Hw1\\lib\\unittest\\case.py',
   'PYMODULE'),
  ('unittest.result',
   'C:\\Users\\sspsj\\anaconda3\\envs\\Hw1\\lib\\unittest\\result.py',
   'PYMODULE'),
  ('unittest.util',
   'C:\\Users\\sspsj\\anaconda3\\envs\\Hw1\\lib\\unittest\\util.py',
   'PYMODULE'),
  ('pdb', 'C:\\Users\\sspsj\\anaconda3\\envs\\Hw1\\lib\\pdb.py', 'PYMODULE'),
  ('pydoc',
   'C:\\Users\\sspsj\\anaconda3\\envs\\Hw1\\lib\\pydoc.py',
   'PYMODULE'),
  ('webbrowser',
   'C:\\Users\\sspsj\\anaconda3\\envs\\Hw1\\lib\\webbrowser.py',
   'PYMODULE'),
  ('shutil',
   'C:\\Users\\sspsj\\anaconda3\\envs\\Hw1\\lib\\shutil.py',
   'PYMODULE'),
  ('zipfile',
   'C:\\Users\\sspsj\\anaconda3\\envs\\Hw1\\lib\\zipfile.py',
   'PYMODULE'),
  ('py_compile',
   'C:\\Users\\sspsj\\anaconda3\\envs\\Hw1\\lib\\py_compile.py',
   'PYMODULE'),
  ('tarfile',
   'C:\\Users\\sspsj\\anaconda3\\envs\\Hw1\\lib\\tarfile.py',
   'PYMODULE'),
  ('lzma', 'C:\\Users\\sspsj\\anaconda3\\envs\\Hw1\\lib\\lzma.py', 'PYMODULE'),
  ('bz2', 'C:\\Users\\sspsj\\anaconda3\\envs\\Hw1\\lib\\bz2.py', 'PYMODULE'),
  ('http.server',
   'C:\\Users\\sspsj\\anaconda3\\envs\\Hw1\\lib\\http\\server.py',
   'PYMODULE'),
  ('socketserver',
   'C:\\Users\\sspsj\\anaconda3\\envs\\Hw1\\lib\\socketserver.py',
   'PYMODULE'),
  ('html',
   'C:\\Users\\sspsj\\anaconda3\\envs\\Hw1\\lib\\html\\__init__.py',
   'PYMODULE'),
  ('html.entities',
   'C:\\Users\\sspsj\\anaconda3\\envs\\Hw1\\lib\\html\\entities.py',
   'PYMODULE'),
  ('pydoc_data.topics',
   'C:\\Users\\sspsj\\anaconda3\\envs\\Hw1\\lib\\pydoc_data\\topics.py',
   'PYMODULE'),
  ('pydoc_data',
   'C:\\Users\\sspsj\\anaconda3\\envs\\Hw1\\lib\\pydoc_data\\__init__.py',
   'PYMODULE'),
  ('tty', 'C:\\Users\\sspsj\\anaconda3\\envs\\Hw1\\lib\\tty.py', 'PYMODULE'),
  ('tokenize',
   'C:\\Users\\sspsj\\anaconda3\\envs\\Hw1\\lib\\tokenize.py',
   'PYMODULE'),
  ('token',
   'C:\\Users\\sspsj\\anaconda3\\envs\\Hw1\\lib\\token.py',
   'PYMODULE'),
  ('platform',
   'C:\\Users\\sspsj\\anaconda3\\envs\\Hw1\\lib\\platform.py',
   'PYMODULE'),
  ('plistlib',
   'C:\\Users\\sspsj\\anaconda3\\envs\\Hw1\\lib\\plistlib.py',
   'PYMODULE'),
  ('pkgutil',
   'C:\\Users\\sspsj\\anaconda3\\envs\\Hw1\\lib\\pkgutil.py',
   'PYMODULE'),
  ('importlib',
   'C:\\Users\\sspsj\\anaconda3\\envs\\Hw1\\lib\\importlib\\__init__.py',
   'PYMODULE'),
  ('importlib.abc',
   'C:\\Users\\sspsj\\anaconda3\\envs\\Hw1\\lib\\importlib\\abc.py',
   'PYMODULE'),
  ('importlib.util',
   'C:\\Users\\sspsj\\anaconda3\\envs\\Hw1\\lib\\importlib\\util.py',
   'PYMODULE'),
  ('importlib.machinery',
   'C:\\Users\\sspsj\\anaconda3\\envs\\Hw1\\lib\\importlib\\machinery.py',
   'PYMODULE'),
  ('importlib._bootstrap_external',
   'C:\\Users\\sspsj\\anaconda3\\envs\\Hw1\\lib\\importlib\\_bootstrap_external.py',
   'PYMODULE'),
  ('importlib._bootstrap',
   'C:\\Users\\sspsj\\anaconda3\\envs\\Hw1\\lib\\importlib\\_bootstrap.py',
   'PYMODULE'),
  ('glob', 'C:\\Users\\sspsj\\anaconda3\\envs\\Hw1\\lib\\glob.py', 'PYMODULE'),
  ('code', 'C:\\Users\\sspsj\\anaconda3\\envs\\Hw1\\lib\\code.py', 'PYMODULE'),
  ('codeop',
   'C:\\Users\\sspsj\\anaconda3\\envs\\Hw1\\lib\\codeop.py',
   'PYMODULE'),
  ('dis', 'C:\\Users\\sspsj\\anaconda3\\envs\\Hw1\\lib\\dis.py', 'PYMODULE'),
  ('opcode',
   'C:\\Users\\sspsj\\anaconda3\\envs\\Hw1\\lib\\opcode.py',
   'PYMODULE'),
  ('bdb', 'C:\\Users\\sspsj\\anaconda3\\envs\\Hw1\\lib\\bdb.py', 'PYMODULE'),
  ('cmd', 'C:\\Users\\sspsj\\anaconda3\\envs\\Hw1\\lib\\cmd.py', 'PYMODULE'),
  ('inspect',
   'C:\\Users\\sspsj\\anaconda3\\envs\\Hw1\\lib\\inspect.py',
   'PYMODULE'),
  ('ast', 'C:\\Users\\sspsj\\anaconda3\\envs\\Hw1\\lib\\ast.py', 'PYMODULE'),
  ('difflib',
   'C:\\Users\\sspsj\\anaconda3\\envs\\Hw1\\lib\\difflib.py',
   'PYMODULE'),
  ('__future__',
   'C:\\Users\\sspsj\\anaconda3\\envs\\Hw1\\lib\\__future__.py',
   'PYMODULE'),
  ('_compat_pickle',
   'C:\\Users\\sspsj\\anaconda3\\envs\\Hw1\\lib\\_compat_pickle.py',
   'PYMODULE'),
  ('tempfile',
   'C:\\Users\\sspsj\\anaconda3\\envs\\Hw1\\lib\\tempfile.py',
   'PYMODULE'),
  ('socket',
   'C:\\Users\\sspsj\\anaconda3\\envs\\Hw1\\lib\\socket.py',
   'PYMODULE'),
  ('multiprocessing.util',
   'C:\\Users\\sspsj\\anaconda3\\envs\\Hw1\\lib\\multiprocessing\\util.py',
   'PYMODULE'),
  ('multiprocessing.popen_spawn_win32',
   'C:\\Users\\sspsj\\anaconda3\\envs\\Hw1\\lib\\multiprocessing\\popen_spawn_win32.py',
   'PYMODULE'),
  ('multiprocessing.spawn',
   'C:\\Users\\sspsj\\anaconda3\\envs\\Hw1\\lib\\multiprocessing\\spawn.py',
   'PYMODULE'),
  ('runpy',
   'C:\\Users\\sspsj\\anaconda3\\envs\\Hw1\\lib\\runpy.py',
   'PYMODULE'),
  ('multiprocessing',
   'C:\\Users\\sspsj\\anaconda3\\envs\\Hw1\\lib\\multiprocessing\\__init__.py',
   'PYMODULE'),
  ('win32com',
   'C:\\Users\\sspsj\\anaconda3\\envs\\Hw1\\lib\\site-packages\\win32com\\__init__.py',
   'PYMODULE'),
  ('win32com.server.util',
   'C:\\Users\\sspsj\\anaconda3\\envs\\Hw1\\lib\\site-packages\\win32com\\server\\util.py',
   'PYMODULE'),
  ('win32com.server.dispatcher',
   'C:\\Users\\sspsj\\anaconda3\\envs\\Hw1\\lib\\site-packages\\win32com\\server\\dispatcher.py',
   'PYMODULE'),
  ('win32traceutil',
   'C:\\Users\\sspsj\\anaconda3\\envs\\Hw1\\lib\\site-packages\\win32\\lib\\win32traceutil.py',
   'PYMODULE'),
  ('win32com.util',
   'C:\\Users\\sspsj\\anaconda3\\envs\\Hw1\\lib\\site-packages\\win32com\\util.py',
   'PYMODULE'),
  ('win32con',
   'C:\\Users\\sspsj\\anaconda3\\envs\\Hw1\\lib\\site-packages\\win32\\lib\\win32con.py',
   'PYMODULE'),
  ('win32com.server.exception',
   'C:\\Users\\sspsj\\anaconda3\\envs\\Hw1\\lib\\site-packages\\win32com\\server\\exception.py',
   'PYMODULE'),
  ('winerror',
   'C:\\Users\\sspsj\\anaconda3\\envs\\Hw1\\lib\\site-packages\\win32\\lib\\winerror.py',
   'PYMODULE'),
  ('win32com.server.policy',
   'C:\\Users\\sspsj\\anaconda3\\envs\\Hw1\\lib\\site-packages\\win32com\\server\\policy.py',
   'PYMODULE'),
  ('win32com.client',
   'C:\\Users\\sspsj\\anaconda3\\envs\\Hw1\\lib\\site-packages\\win32com\\client\\__init__.py',
   'PYMODULE'),
  ('win32com.client.makepy',
   'C:\\Users\\sspsj\\anaconda3\\envs\\Hw1\\lib\\site-packages\\win32com\\client\\makepy.py',
   'PYMODULE'),
  ('pywin.dialogs.status',
   'C:\\Users\\sspsj\\anaconda3\\envs\\Hw1\\lib\\site-packages\\Pythonwin\\pywin\\dialogs\\status.py',
   'PYMODULE'),
  ('pywin.mfc.thread',
   'C:\\Users\\sspsj\\anaconda3\\envs\\Hw1\\lib\\site-packages\\Pythonwin\\pywin\\mfc\\thread.py',
   'PYMODULE'),
  ('pywin.mfc.object',
   'C:\\Users\\sspsj\\anaconda3\\envs\\Hw1\\lib\\site-packages\\Pythonwin\\pywin\\mfc\\object.py',
   'PYMODULE'),
  ('pywin.mfc.dialog',
   'C:\\Users\\sspsj\\anaconda3\\envs\\Hw1\\lib\\site-packages\\Pythonwin\\pywin\\mfc\\dialog.py',
   'PYMODULE'),
  ('pywin.mfc.window',
   'C:\\Users\\sspsj\\anaconda3\\envs\\Hw1\\lib\\site-packages\\Pythonwin\\pywin\\mfc\\window.py',
   'PYMODULE'),
  ('pywin.mfc',
   'C:\\Users\\sspsj\\anaconda3\\envs\\Hw1\\lib\\site-packages\\Pythonwin\\pywin\\mfc\\__init__.py',
   'PYMODULE'),
  ('pywin.dialogs',
   'C:\\Users\\sspsj\\anaconda3\\envs\\Hw1\\lib\\site-packages\\Pythonwin\\pywin\\dialogs\\__init__.py',
   'PYMODULE'),
  ('pywin',
   'C:\\Users\\sspsj\\anaconda3\\envs\\Hw1\\lib\\site-packages\\Pythonwin\\pywin\\__init__.py',
   'PYMODULE'),
  ('win32com.client.gencache',
   'C:\\Users\\sspsj\\anaconda3\\envs\\Hw1\\lib\\site-packages\\win32com\\client\\gencache.py',
   'PYMODULE'),
  ('win32com.client.selecttlb',
   'C:\\Users\\sspsj\\anaconda3\\envs\\Hw1\\lib\\site-packages\\win32com\\client\\selecttlb.py',
   'PYMODULE'),
  ('pywin.dialogs.list',
   'C:\\Users\\sspsj\\anaconda3\\envs\\Hw1\\lib\\site-packages\\Pythonwin\\pywin\\dialogs\\list.py',
   'PYMODULE'),
  ('commctrl',
   'C:\\Users\\sspsj\\anaconda3\\envs\\Hw1\\lib\\site-packages\\win32\\lib\\commctrl.py',
   'PYMODULE'),
  ('win32com.client.genpy',
   'C:\\Users\\sspsj\\anaconda3\\envs\\Hw1\\lib\\site-packages\\win32com\\client\\genpy.py',
   'PYMODULE'),
  ('win32com.client.CLSIDToClass',
   'C:\\Users\\sspsj\\anaconda3\\envs\\Hw1\\lib\\site-packages\\win32com\\client\\CLSIDToClass.py',
   'PYMODULE'),
  ('win32com.client.dynamic',
   'C:\\Users\\sspsj\\anaconda3\\envs\\Hw1\\lib\\site-packages\\win32com\\client\\dynamic.py',
   'PYMODULE'),
  ('win32com.client.build',
   'C:\\Users\\sspsj\\anaconda3\\envs\\Hw1\\lib\\site-packages\\win32com\\client\\build.py',
   'PYMODULE'),
  ('pywintypes',
   'C:\\Users\\sspsj\\anaconda3\\envs\\Hw1\\lib\\site-packages\\win32\\lib\\pywintypes.py',
   'PYMODULE'),
  ('distutils.sysconfig',
   'C:\\Users\\sspsj\\anaconda3\\envs\\Hw1\\lib\\distutils\\sysconfig.py',
   'PYMODULE'),
  ('distutils',
   'C:\\Users\\sspsj\\anaconda3\\envs\\Hw1\\lib\\distutils\\__init__.py',
   'PYMODULE'),
  ('distutils.archive_util',
   'C:\\Users\\sspsj\\anaconda3\\envs\\Hw1\\lib\\distutils\\archive_util.py',
   'PYMODULE'),
  ('distutils.dir_util',
   'C:\\Users\\sspsj\\anaconda3\\envs\\Hw1\\lib\\distutils\\dir_util.py',
   'PYMODULE'),
  ('distutils.file_util',
   'C:\\Users\\sspsj\\anaconda3\\envs\\Hw1\\lib\\distutils\\file_util.py',
   'PYMODULE'),
  ('distutils.dep_util',
   'C:\\Users\\sspsj\\anaconda3\\envs\\Hw1\\lib\\distutils\\dep_util.py',
   'PYMODULE'),
  ('distutils.spawn',
   'C:\\Users\\sspsj\\anaconda3\\envs\\Hw1\\lib\\distutils\\spawn.py',
   'PYMODULE'),
  ('distutils.debug',
   'C:\\Users\\sspsj\\anaconda3\\envs\\Hw1\\lib\\distutils\\debug.py',
   'PYMODULE'),
  ('distutils.ccompiler',
   'C:\\Users\\sspsj\\anaconda3\\envs\\Hw1\\lib\\distutils\\ccompiler.py',
   'PYMODULE'),
  ('distutils.fancy_getopt',
   'C:\\Users\\sspsj\\anaconda3\\envs\\Hw1\\lib\\distutils\\fancy_getopt.py',
   'PYMODULE'),
  ('distutils.util',
   'C:\\Users\\sspsj\\anaconda3\\envs\\Hw1\\lib\\distutils\\util.py',
   'PYMODULE'),
  ('distutils.filelist',
   'C:\\Users\\sspsj\\anaconda3\\envs\\Hw1\\lib\\distutils\\filelist.py',
   'PYMODULE'),
  ('lib2to3.refactor',
   'C:\\Users\\sspsj\\anaconda3\\envs\\Hw1\\lib\\lib2to3\\refactor.py',
   'PYMODULE'),
  ('lib2to3.btm_matcher',
   'C:\\Users\\sspsj\\anaconda3\\envs\\Hw1\\lib\\lib2to3\\btm_matcher.py',
   'PYMODULE'),
  ('lib2to3.btm_utils',
   'C:\\Users\\sspsj\\anaconda3\\envs\\Hw1\\lib\\lib2to3\\btm_utils.py',
   'PYMODULE'),
  ('lib2to3.pgen2.grammar',
   'C:\\Users\\sspsj\\anaconda3\\envs\\Hw1\\lib\\lib2to3\\pgen2\\grammar.py',
   'PYMODULE'),
  ('lib2to3.pygram',
   'C:\\Users\\sspsj\\anaconda3\\envs\\Hw1\\lib\\lib2to3\\pygram.py',
   'PYMODULE'),
  ('lib2to3.pytree',
   'C:\\Users\\sspsj\\anaconda3\\envs\\Hw1\\lib\\lib2to3\\pytree.py',
   'PYMODULE'),
  ('lib2to3',
   'C:\\Users\\sspsj\\anaconda3\\envs\\Hw1\\lib\\lib2to3\\__init__.py',
   'PYMODULE'),
  ('lib2to3.patcomp',
   'C:\\Users\\sspsj\\anaconda3\\envs\\Hw1\\lib\\lib2to3\\patcomp.py',
   'PYMODULE'),
  ('lib2to3.pgen2.parse',
   'C:\\Users\\sspsj\\anaconda3\\envs\\Hw1\\lib\\lib2to3\\pgen2\\parse.py',
   'PYMODULE'),
  ('lib2to3.pgen2.literals',
   'C:\\Users\\sspsj\\anaconda3\\envs\\Hw1\\lib\\lib2to3\\pgen2\\literals.py',
   'PYMODULE'),
  ('lib2to3.fixer_util',
   'C:\\Users\\sspsj\\anaconda3\\envs\\Hw1\\lib\\lib2to3\\fixer_util.py',
   'PYMODULE'),
  ('lib2to3.pgen2.token',
   'C:\\Users\\sspsj\\anaconda3\\envs\\Hw1\\lib\\lib2to3\\pgen2\\token.py',
   'PYMODULE'),
  ('lib2to3.pgen2.tokenize',
   'C:\\Users\\sspsj\\anaconda3\\envs\\Hw1\\lib\\lib2to3\\pgen2\\tokenize.py',
   'PYMODULE'),
  ('lib2to3.pgen2.driver',
   'C:\\Users\\sspsj\\anaconda3\\envs\\Hw1\\lib\\lib2to3\\pgen2\\driver.py',
   'PYMODULE'),
  ('lib2to3.pgen2.pgen',
   'C:\\Users\\sspsj\\anaconda3\\envs\\Hw1\\lib\\lib2to3\\pgen2\\pgen.py',
   'PYMODULE'),
  ('lib2to3.pgen2',
   'C:\\Users\\sspsj\\anaconda3\\envs\\Hw1\\lib\\lib2to3\\pgen2\\__init__.py',
   'PYMODULE'),
  ('distutils.log',
   'C:\\Users\\sspsj\\anaconda3\\envs\\Hw1\\lib\\distutils\\log.py',
   'PYMODULE'),
  ('distutils.text_file',
   'C:\\Users\\sspsj\\anaconda3\\envs\\Hw1\\lib\\distutils\\text_file.py',
   'PYMODULE'),
  ('_osx_support',
   'C:\\Users\\sspsj\\anaconda3\\envs\\Hw1\\lib\\_osx_support.py',
   'PYMODULE'),
  ('distutils.errors',
   'C:\\Users\\sspsj\\anaconda3\\envs\\Hw1\\lib\\distutils\\errors.py',
   'PYMODULE'),
  ('win32com.server',
   'C:\\Users\\sspsj\\anaconda3\\envs\\Hw1\\lib\\site-packages\\win32com\\server\\__init__.py',
   'PYMODULE'),
  ('win32com.universal',
   'C:\\Users\\sspsj\\anaconda3\\envs\\Hw1\\lib\\site-packages\\win32com\\universal.py',
   'PYMODULE'),
  ('win32com.client.util',
   'C:\\Users\\sspsj\\anaconda3\\envs\\Hw1\\lib\\site-packages\\win32com\\client\\util.py',
   'PYMODULE'),
  ('imp', 'C:\\Users\\sspsj\\anaconda3\\envs\\Hw1\\lib\\imp.py', 'PYMODULE'),
  ('pythoncom',
   'C:\\Users\\sspsj\\anaconda3\\envs\\Hw1\\lib\\site-packages\\pythoncom.py',
   'PYMODULE'),
  ('pkg_resources',
   'C:\\Users\\sspsj\\anaconda3\\envs\\Hw1\\lib\\site-packages\\pkg_resources\\__init__.py',
   'PYMODULE'),
  ('pkg_resources._vendor',
   'C:\\Users\\sspsj\\anaconda3\\envs\\Hw1\\lib\\site-packages\\pkg_resources\\_vendor\\__init__.py',
   'PYMODULE'),
  ('pkg_resources._vendor.packaging.utils',
   'C:\\Users\\sspsj\\anaconda3\\envs\\Hw1\\lib\\site-packages\\pkg_resources\\_vendor\\packaging\\utils.py',
   'PYMODULE'),
  ('typing',
   'C:\\Users\\sspsj\\anaconda3\\envs\\Hw1\\lib\\typing.py',
   'PYMODULE'),
  ('pkg_resources._vendor.packaging.version',
   'C:\\Users\\sspsj\\anaconda3\\envs\\Hw1\\lib\\site-packages\\pkg_resources\\_vendor\\packaging\\version.py',
   'PYMODULE'),
  ('pkg_resources._vendor.appdirs',
   'C:\\Users\\sspsj\\anaconda3\\envs\\Hw1\\lib\\site-packages\\pkg_resources\\_vendor\\appdirs.py',
   'PYMODULE'),
  ('win32com.shell.shellcon',
   'C:\\Users\\sspsj\\anaconda3\\envs\\Hw1\\lib\\site-packages\\win32comext\\shell\\shellcon.py',
   'PYMODULE'),
  ('win32com.shell',
   'C:\\Users\\sspsj\\anaconda3\\envs\\Hw1\\lib\\site-packages\\win32comext\\shell\\__init__.py',
   'PYMODULE'),
  ('pkg_resources._vendor.packaging._structures',
   'C:\\Users\\sspsj\\anaconda3\\envs\\Hw1\\lib\\site-packages\\pkg_resources\\_vendor\\packaging\\_structures.py',
   'PYMODULE'),
  ('pkg_resources._vendor.packaging._typing',
   'C:\\Users\\sspsj\\anaconda3\\envs\\Hw1\\lib\\site-packages\\pkg_resources\\_vendor\\packaging\\_typing.py',
   'PYMODULE'),
  ('pkg_resources._vendor.packaging.tags',
   'C:\\Users\\sspsj\\anaconda3\\envs\\Hw1\\lib\\site-packages\\pkg_resources\\_vendor\\packaging\\tags.py',
   'PYMODULE'),
  ('pkg_resources._vendor.packaging.requirements',
   'C:\\Users\\sspsj\\anaconda3\\envs\\Hw1\\lib\\site-packages\\pkg_resources\\_vendor\\packaging\\requirements.py',
   'PYMODULE'),
  ('pkg_resources._vendor.packaging.markers',
   'C:\\Users\\sspsj\\anaconda3\\envs\\Hw1\\lib\\site-packages\\pkg_resources\\_vendor\\packaging\\markers.py',
   'PYMODULE'),
  ('pkg_resources._vendor.pyparsing',
   'C:\\Users\\sspsj\\anaconda3\\envs\\Hw1\\lib\\site-packages\\pkg_resources\\_vendor\\pyparsing.py',
   'PYMODULE'),
  ('uuid', 'C:\\Users\\sspsj\\anaconda3\\envs\\Hw1\\lib\\uuid.py', 'PYMODULE'),
  ('ctypes.util',
   'C:\\Users\\sspsj\\anaconda3\\envs\\Hw1\\lib\\ctypes\\util.py',
   'PYMODULE'),
  ('ctypes.macholib.dyld',
   'C:\\Users\\sspsj\\anaconda3\\envs\\Hw1\\lib\\ctypes\\macholib\\dyld.py',
   'PYMODULE'),
  ('ctypes.macholib',
   'C:\\Users\\sspsj\\anaconda3\\envs\\Hw1\\lib\\ctypes\\macholib\\__init__.py',
   'PYMODULE'),
  ('ctypes.macholib.dylib',
   'C:\\Users\\sspsj\\anaconda3\\envs\\Hw1\\lib\\ctypes\\macholib\\dylib.py',
   'PYMODULE'),
  ('ctypes.macholib.framework',
   'C:\\Users\\sspsj\\anaconda3\\envs\\Hw1\\lib\\ctypes\\macholib\\framework.py',
   'PYMODULE'),
  ('netbios',
   'C:\\Users\\sspsj\\anaconda3\\envs\\Hw1\\lib\\site-packages\\win32\\lib\\netbios.py',
   'PYMODULE'),
  ('pkg_resources._vendor.packaging.specifiers',
   'C:\\Users\\sspsj\\anaconda3\\envs\\Hw1\\lib\\site-packages\\pkg_resources\\_vendor\\packaging\\specifiers.py',
   'PYMODULE'),
  ('pkg_resources._vendor.packaging',
   'C:\\Users\\sspsj\\anaconda3\\envs\\Hw1\\lib\\site-packages\\pkg_resources\\_vendor\\packaging\\__init__.py',
   'PYMODULE'),
  ('pkg_resources._vendor.packaging._compat',
   'C:\\Users\\sspsj\\anaconda3\\envs\\Hw1\\lib\\site-packages\\pkg_resources\\_vendor\\packaging\\_compat.py',
   'PYMODULE'),
  ('pkg_resources._vendor.packaging.__about__',
   'C:\\Users\\sspsj\\anaconda3\\envs\\Hw1\\lib\\site-packages\\pkg_resources\\_vendor\\packaging\\__about__.py',
   'PYMODULE'),
  ('sysconfig',
   'C:\\Users\\sspsj\\anaconda3\\envs\\Hw1\\lib\\sysconfig.py',
   'PYMODULE'),
  ('pkg_resources.extern',
   'C:\\Users\\sspsj\\anaconda3\\envs\\Hw1\\lib\\site-packages\\pkg_resources\\extern\\__init__.py',
   'PYMODULE'),
  ('six',
   'C:\\Users\\sspsj\\anaconda3\\envs\\Hw1\\lib\\site-packages\\six.py',
   'PYMODULE'),
  ('stringprep',
   'C:\\Users\\sspsj\\anaconda3\\envs\\Hw1\\lib\\stringprep.py',
   'PYMODULE'),
  ('tracemalloc',
   'C:\\Users\\sspsj\\anaconda3\\envs\\Hw1\\lib\\tracemalloc.py',
   'PYMODULE'),
  ('random',
   'C:\\Users\\sspsj\\anaconda3\\envs\\Hw1\\lib\\random.py',
   'PYMODULE'),
  ('numpy',
   'C:\\Users\\sspsj\\anaconda3\\envs\\Hw1\\lib\\site-packages\\numpy\\__init__.py',
   'PYMODULE'),
  ('mkl',
   'C:\\Users\\sspsj\\anaconda3\\envs\\Hw1\\lib\\site-packages\\mkl\\__init__.py',
   'PYMODULE'),
  ('numpy._pytesttester',
   'C:\\Users\\sspsj\\anaconda3\\envs\\Hw1\\lib\\site-packages\\numpy\\_pytesttester.py',
   'PYMODULE'),
  ('numpy.distutils.cpuinfo',
   'C:\\Users\\sspsj\\anaconda3\\envs\\Hw1\\lib\\site-packages\\numpy\\distutils\\cpuinfo.py',
   'PYMODULE'),
  ('numpy.distutils',
   'C:\\Users\\sspsj\\anaconda3\\envs\\Hw1\\lib\\site-packages\\numpy\\distutils\\__init__.py',
   'PYMODULE'),
  ('numpy.distutils.fcompiler',
   'C:\\Users\\sspsj\\anaconda3\\envs\\Hw1\\lib\\site-packages\\numpy\\distutils\\fcompiler\\__init__.py',
   'PYMODULE'),
  ('numpy.distutils.command.config_compiler',
   'C:\\Users\\sspsj\\anaconda3\\envs\\Hw1\\lib\\site-packages\\numpy\\distutils\\command\\config_compiler.py',
   'PYMODULE'),
  ('numpy.distutils.command',
   'C:\\Users\\sspsj\\anaconda3\\envs\\Hw1\\lib\\site-packages\\numpy\\distutils\\command\\__init__.py',
   'PYMODULE'),
  ('numpy.distutils.command.egg_info',
   'C:\\Users\\sspsj\\anaconda3\\envs\\Hw1\\lib\\site-packages\\numpy\\distutils\\command\\egg_info.py',
   'PYMODULE'),
  ('setuptools.command.egg_info',
   'C:\\Users\\sspsj\\anaconda3\\envs\\Hw1\\lib\\site-packages\\setuptools\\command\\egg_info.py',
   'PYMODULE'),
  ('setuptools.extern',
   'C:\\Users\\sspsj\\anaconda3\\envs\\Hw1\\lib\\site-packages\\setuptools\\extern\\__init__.py',
   'PYMODULE'),
  ('setuptools.glob',
   'C:\\Users\\sspsj\\anaconda3\\envs\\Hw1\\lib\\site-packages\\setuptools\\glob.py',
   'PYMODULE'),
  ('setuptools.unicode_utils',
   'C:\\Users\\sspsj\\anaconda3\\envs\\Hw1\\lib\\site-packages\\setuptools\\unicode_utils.py',
   'PYMODULE'),
  ('setuptools.command.bdist_egg',
   'C:\\Users\\sspsj\\anaconda3\\envs\\Hw1\\lib\\site-packages\\setuptools\\command\\bdist_egg.py',
   'PYMODULE'),
  ('setuptools.extension',
   'C:\\Users\\sspsj\\anaconda3\\envs\\Hw1\\lib\\site-packages\\setuptools\\extension.py',
   'PYMODULE'),
  ('setuptools.monkey',
   'C:\\Users\\sspsj\\anaconda3\\envs\\Hw1\\lib\\site-packages\\setuptools\\monkey.py',
   'PYMODULE'),
  ('distutils.extension',
   'C:\\Users\\sspsj\\anaconda3\\envs\\Hw1\\lib\\distutils\\extension.py',
   'PYMODULE'),
  ('setuptools.command',
   'C:\\Users\\sspsj\\anaconda3\\envs\\Hw1\\lib\\site-packages\\setuptools\\command\\__init__.py',
   'PYMODULE'),
  ('setuptools.command.install_scripts',
   'C:\\Users\\sspsj\\anaconda3\\envs\\Hw1\\lib\\site-packages\\setuptools\\command\\install_scripts.py',
   'PYMODULE'),
  ('setuptools.command.easy_install',
   'C:\\Users\\sspsj\\anaconda3\\envs\\Hw1\\lib\\site-packages\\setuptools\\command\\easy_install.py',
   'PYMODULE'),
  ('setuptools.dist',
   'C:\\Users\\sspsj\\anaconda3\\envs\\Hw1\\lib\\site-packages\\setuptools\\dist.py',
   'PYMODULE'),
  ('setuptools.installer',
   'C:\\Users\\sspsj\\anaconda3\\envs\\Hw1\\lib\\site-packages\\setuptools\\installer.py',
   'PYMODULE'),
  ('setuptools.config',
   'C:\\Users\\sspsj\\anaconda3\\envs\\Hw1\\lib\\site-packages\\setuptools\\config.py',
   'PYMODULE'),
  ('setuptools.windows_support',
   'C:\\Users\\sspsj\\anaconda3\\envs\\Hw1\\lib\\site-packages\\setuptools\\windows_support.py',
   'PYMODULE'),
  ('distutils.version',
   'C:\\Users\\sspsj\\anaconda3\\envs\\Hw1\\lib\\distutils\\version.py',
   'PYMODULE'),
  ('distutils.cmd',
   'C:\\Users\\sspsj\\anaconda3\\envs\\Hw1\\lib\\distutils\\cmd.py',
   'PYMODULE'),
  ('setuptools.wheel',
   'C:\\Users\\sspsj\\anaconda3\\envs\\Hw1\\lib\\site-packages\\setuptools\\wheel.py',
   'PYMODULE'),
  ('setuptools.package_index',
   'C:\\Users\\sspsj\\anaconda3\\envs\\Hw1\\lib\\site-packages\\setuptools\\package_index.py',
   'PYMODULE'),
  ('setuptools.ssl_support',
   'C:\\Users\\sspsj\\anaconda3\\envs\\Hw1\\lib\\site-packages\\setuptools\\ssl_support.py',
   'PYMODULE'),
  ('wincertstore',
   'C:\\Users\\sspsj\\anaconda3\\envs\\Hw1\\lib\\site-packages\\wincertstore.py',
   'PYMODULE'),
  ('ctypes.wintypes',
   'C:\\Users\\sspsj\\anaconda3\\envs\\Hw1\\lib\\ctypes\\wintypes.py',
   'PYMODULE'),
  ('setuptools.archive_util',
   'C:\\Users\\sspsj\\anaconda3\\envs\\Hw1\\lib\\site-packages\\setuptools\\archive_util.py',
   'PYMODULE'),
  ('setuptools.sandbox',
   'C:\\Users\\sspsj\\anaconda3\\envs\\Hw1\\lib\\site-packages\\setuptools\\sandbox.py',
   'PYMODULE'),
  ('configparser',
   'C:\\Users\\sspsj\\anaconda3\\envs\\Hw1\\lib\\configparser.py',
   'PYMODULE'),
  ('site',
   'C:\\Users\\sspsj\\anaconda3\\envs\\Hw1\\lib\\site-packages\\PyInstaller\\fake-modules\\site.py',
   'PYMODULE'),
  ('distutils.command.build_scripts',
   'C:\\Users\\sspsj\\anaconda3\\envs\\Hw1\\lib\\distutils\\command\\build_scripts.py',
   'PYMODULE'),
  ('distutils.command',
   'C:\\Users\\sspsj\\anaconda3\\envs\\Hw1\\lib\\distutils\\command\\__init__.py',
   'PYMODULE'),
  ('distutils.command.install',
   'C:\\Users\\sspsj\\anaconda3\\envs\\Hw1\\lib\\distutils\\command\\install.py',
   'PYMODULE'),
  ('distutils.command.install_scripts',
   'C:\\Users\\sspsj\\anaconda3\\envs\\Hw1\\lib\\distutils\\command\\install_scripts.py',
   'PYMODULE'),
  ('distutils.command.bdist',
   'C:\\Users\\sspsj\\anaconda3\\envs\\Hw1\\lib\\distutils\\command\\bdist.py',
   'PYMODULE'),
  ('setuptools.command.setopt',
   'C:\\Users\\sspsj\\anaconda3\\envs\\Hw1\\lib\\site-packages\\setuptools\\command\\setopt.py',
   'PYMODULE'),
  ('setuptools.command.sdist',
   'C:\\Users\\sspsj\\anaconda3\\envs\\Hw1\\lib\\site-packages\\setuptools\\command\\sdist.py',
   'PYMODULE'),
  ('setuptools.command.py36compat',
   'C:\\Users\\sspsj\\anaconda3\\envs\\Hw1\\lib\\site-packages\\setuptools\\command\\py36compat.py',
   'PYMODULE'),
  ('distutils.command.sdist',
   'C:\\Users\\sspsj\\anaconda3\\envs\\Hw1\\lib\\distutils\\command\\sdist.py',
   'PYMODULE'),
  ('setuptools',
   'C:\\Users\\sspsj\\anaconda3\\envs\\Hw1\\lib\\site-packages\\setuptools\\__init__.py',
   'PYMODULE'),
  ('setuptools._vendor.packaging.utils',
   'C:\\Users\\sspsj\\anaconda3\\envs\\Hw1\\lib\\site-packages\\setuptools\\_vendor\\packaging\\utils.py',
   'PYMODULE'),
  ('setuptools._vendor',
   'C:\\Users\\sspsj\\anaconda3\\envs\\Hw1\\lib\\site-packages\\setuptools\\_vendor\\__init__.py',
   'PYMODULE'),
  ('setuptools._vendor.packaging._typing',
   'C:\\Users\\sspsj\\anaconda3\\envs\\Hw1\\lib\\site-packages\\setuptools\\_vendor\\packaging\\_typing.py',
   'PYMODULE'),
  ('setuptools._vendor.packaging.requirements',
   'C:\\Users\\sspsj\\anaconda3\\envs\\Hw1\\lib\\site-packages\\setuptools\\_vendor\\packaging\\requirements.py',
   'PYMODULE'),
  ('setuptools._vendor.packaging._structures',
   'C:\\Users\\sspsj\\anaconda3\\envs\\Hw1\\lib\\site-packages\\setuptools\\_vendor\\packaging\\_structures.py',
   'PYMODULE'),
  ('setuptools._vendor.ordered_set',
   'C:\\Users\\sspsj\\anaconda3\\envs\\Hw1\\lib\\site-packages\\setuptools\\_vendor\\ordered_set.py',
   'PYMODULE'),
  ('setuptools._vendor.packaging.version',
   'C:\\Users\\sspsj\\anaconda3\\envs\\Hw1\\lib\\site-packages\\setuptools\\_vendor\\packaging\\version.py',
   'PYMODULE'),
  ('setuptools._vendor.pyparsing',
   'C:\\Users\\sspsj\\anaconda3\\envs\\Hw1\\lib\\site-packages\\setuptools\\_vendor\\pyparsing.py',
   'PYMODULE'),
  ('setuptools._vendor.packaging.tags',
   'C:\\Users\\sspsj\\anaconda3\\envs\\Hw1\\lib\\site-packages\\setuptools\\_vendor\\packaging\\tags.py',
   'PYMODULE'),
  ('setuptools._vendor.packaging.__about__',
   'C:\\Users\\sspsj\\anaconda3\\envs\\Hw1\\lib\\site-packages\\setuptools\\_vendor\\packaging\\__about__.py',
   'PYMODULE'),
  ('setuptools._vendor.packaging._compat',
   'C:\\Users\\sspsj\\anaconda3\\envs\\Hw1\\lib\\site-packages\\setuptools\\_vendor\\packaging\\_compat.py',
   'PYMODULE'),
  ('setuptools._vendor.packaging.specifiers',
   'C:\\Users\\sspsj\\anaconda3\\envs\\Hw1\\lib\\site-packages\\setuptools\\_vendor\\packaging\\specifiers.py',
   'PYMODULE'),
  ('setuptools._vendor.packaging',
   'C:\\Users\\sspsj\\anaconda3\\envs\\Hw1\\lib\\site-packages\\setuptools\\_vendor\\packaging\\__init__.py',
   'PYMODULE'),
  ('setuptools._vendor.packaging.markers',
   'C:\\Users\\sspsj\\anaconda3\\envs\\Hw1\\lib\\site-packages\\setuptools\\_vendor\\packaging\\markers.py',
   'PYMODULE'),
  ('setuptools.msvc',
   'C:\\Users\\sspsj\\anaconda3\\envs\\Hw1\\lib\\site-packages\\setuptools\\msvc.py',
   'PYMODULE'),
  ('distutils.msvc9compiler',
   'C:\\Users\\sspsj\\anaconda3\\envs\\Hw1\\lib\\distutils\\msvc9compiler.py',
   'PYMODULE'),
  ('json',
   'C:\\Users\\sspsj\\anaconda3\\envs\\Hw1\\lib\\json\\__init__.py',
   'PYMODULE'),
  ('json.encoder',
   'C:\\Users\\sspsj\\anaconda3\\envs\\Hw1\\lib\\json\\encoder.py',
   'PYMODULE'),
  ('json.decoder',
   'C:\\Users\\sspsj\\anaconda3\\envs\\Hw1\\lib\\json\\decoder.py',
   'PYMODULE'),
  ('json.scanner',
   'C:\\Users\\sspsj\\anaconda3\\envs\\Hw1\\lib\\json\\scanner.py',
   'PYMODULE'),
  ('distutils.command.build_ext',
   'C:\\Users\\sspsj\\anaconda3\\envs\\Hw1\\lib\\distutils\\command\\build_ext.py',
   'PYMODULE'),
  ('distutils._msvccompiler',
   'C:\\Users\\sspsj\\anaconda3\\envs\\Hw1\\lib\\distutils\\_msvccompiler.py',
   'PYMODULE'),
  ('concurrent.futures',
   'C:\\Users\\sspsj\\anaconda3\\envs\\Hw1\\lib\\concurrent\\futures\\__init__.py',
   'PYMODULE'),
  ('concurrent.futures.thread',
   'C:\\Users\\sspsj\\anaconda3\\envs\\Hw1\\lib\\concurrent\\futures\\thread.py',
   'PYMODULE'),
  ('concurrent.futures.process',
   'C:\\Users\\sspsj\\anaconda3\\envs\\Hw1\\lib\\concurrent\\futures\\process.py',
   'PYMODULE'),
  ('concurrent.futures._base',
   'C:\\Users\\sspsj\\anaconda3\\envs\\Hw1\\lib\\concurrent\\futures\\_base.py',
   'PYMODULE'),
  ('concurrent',
   'C:\\Users\\sspsj\\anaconda3\\envs\\Hw1\\lib\\concurrent\\__init__.py',
   'PYMODULE'),
  ('setuptools.namespaces',
   'C:\\Users\\sspsj\\anaconda3\\envs\\Hw1\\lib\\site-packages\\setuptools\\namespaces.py',
   'PYMODULE'),
  ('setuptools.depends',
   'C:\\Users\\sspsj\\anaconda3\\envs\\Hw1\\lib\\site-packages\\setuptools\\depends.py',
   'PYMODULE'),
  ('setuptools._imp',
   'C:\\Users\\sspsj\\anaconda3\\envs\\Hw1\\lib\\site-packages\\setuptools\\_imp.py',
   'PYMODULE'),
  ('setuptools.py34compat',
   'C:\\Users\\sspsj\\anaconda3\\envs\\Hw1\\lib\\site-packages\\setuptools\\py34compat.py',
   'PYMODULE'),
  ('setuptools.version',
   'C:\\Users\\sspsj\\anaconda3\\envs\\Hw1\\lib\\site-packages\\setuptools\\version.py',
   'PYMODULE'),
  ('setuptools._deprecation_warning',
   'C:\\Users\\sspsj\\anaconda3\\envs\\Hw1\\lib\\site-packages\\setuptools\\_deprecation_warning.py',
   'PYMODULE'),
  ('_distutils_hack.override',
   'C:\\Users\\sspsj\\anaconda3\\envs\\Hw1\\lib\\site-packages\\_distutils_hack\\override.py',
   'PYMODULE'),
  ('_distutils_hack',
   'C:\\Users\\sspsj\\anaconda3\\envs\\Hw1\\lib\\site-packages\\_distutils_hack\\__init__.py',
   'PYMODULE'),
  ('numpy.distutils.command.develop',
   'C:\\Users\\sspsj\\anaconda3\\envs\\Hw1\\lib\\site-packages\\numpy\\distutils\\command\\develop.py',
   'PYMODULE'),
  ('setuptools.command.develop',
   'C:\\Users\\sspsj\\anaconda3\\envs\\Hw1\\lib\\site-packages\\setuptools\\command\\develop.py',
   'PYMODULE'),
  ('numpy.distutils.command.install_clib',
   'C:\\Users\\sspsj\\anaconda3\\envs\\Hw1\\lib\\site-packages\\numpy\\distutils\\command\\install_clib.py',
   'PYMODULE'),
  ('numpy.distutils.command.bdist_rpm',
   'C:\\Users\\sspsj\\anaconda3\\envs\\Hw1\\lib\\site-packages\\numpy\\distutils\\command\\bdist_rpm.py',
   'PYMODULE'),
  ('distutils.command.bdist_rpm',
   'C:\\Users\\sspsj\\anaconda3\\envs\\Hw1\\lib\\distutils\\command\\bdist_rpm.py',
   'PYMODULE'),
  ('setuptools.command.bdist_rpm',
   'C:\\Users\\sspsj\\anaconda3\\envs\\Hw1\\lib\\site-packages\\setuptools\\command\\bdist_rpm.py',
   'PYMODULE'),
  ('numpy.distutils.command.install',
   'C:\\Users\\sspsj\\anaconda3\\envs\\Hw1\\lib\\site-packages\\numpy\\distutils\\command\\install.py',
   'PYMODULE'),
  ('setuptools.command.install',
   'C:\\Users\\sspsj\\anaconda3\\envs\\Hw1\\lib\\site-packages\\setuptools\\command\\install.py',
   'PYMODULE'),
  ('numpy.distutils.command.install_headers',
   'C:\\Users\\sspsj\\anaconda3\\envs\\Hw1\\lib\\site-packages\\numpy\\distutils\\command\\install_headers.py',
   'PYMODULE'),
  ('distutils.command.install_headers',
   'C:\\Users\\sspsj\\anaconda3\\envs\\Hw1\\lib\\distutils\\command\\install_headers.py',
   'PYMODULE'),
  ('numpy.distutils.command.install_data',
   'C:\\Users\\sspsj\\anaconda3\\envs\\Hw1\\lib\\site-packages\\numpy\\distutils\\command\\install_data.py',
   'PYMODULE'),
  ('distutils.command.install_data',
   'C:\\Users\\sspsj\\anaconda3\\envs\\Hw1\\lib\\distutils\\command\\install_data.py',
   'PYMODULE'),
  ('numpy.distutils.command.sdist',
   'C:\\Users\\sspsj\\anaconda3\\envs\\Hw1\\lib\\site-packages\\numpy\\distutils\\command\\sdist.py',
   'PYMODULE'),
  ('numpy.distutils.command.build_scripts',
   'C:\\Users\\sspsj\\anaconda3\\envs\\Hw1\\lib\\site-packages\\numpy\\distutils\\command\\build_scripts.py',
   'PYMODULE'),
  ('numpy.distutils.command.build_clib',
   'C:\\Users\\sspsj\\anaconda3\\envs\\Hw1\\lib\\site-packages\\numpy\\distutils\\command\\build_clib.py',
   'PYMODULE'),
  ('distutils.command.build_clib',
   'C:\\Users\\sspsj\\anaconda3\\envs\\Hw1\\lib\\distutils\\command\\build_clib.py',
   'PYMODULE'),
  ('numpy.distutils.command.build_ext',
   'C:\\Users\\sspsj\\anaconda3\\envs\\Hw1\\lib\\site-packages\\numpy\\distutils\\command\\build_ext.py',
   'PYMODULE'),
  ('numpy.distutils.system_info',
   'C:\\Users\\sspsj\\anaconda3\\envs\\Hw1\\lib\\site-packages\\numpy\\distutils\\system_info.py',
   'PYMODULE'),
  ('numpy.f2py',
   'C:\\Users\\sspsj\\anaconda3\\envs\\Hw1\\lib\\site-packages\\numpy\\f2py\\__init__.py',
   'PYMODULE'),
  ('numpy.f2py.diagnose',
   'C:\\Users\\sspsj\\anaconda3\\envs\\Hw1\\lib\\site-packages\\numpy\\f2py\\diagnose.py',
   'PYMODULE'),
  ('numpy.f2py.f2py_testing',
   'C:\\Users\\sspsj\\anaconda3\\envs\\Hw1\\lib\\site-packages\\numpy\\f2py\\f2py_testing.py',
   'PYMODULE'),
  ('numpy.f2py.f2py2e',
   'C:\\Users\\sspsj\\anaconda3\\envs\\Hw1\\lib\\site-packages\\numpy\\f2py\\f2py2e.py',
   'PYMODULE'),
  ('numpy.distutils.command.build_src',
   'C:\\Users\\sspsj\\anaconda3\\envs\\Hw1\\lib\\site-packages\\numpy\\distutils\\command\\build_src.py',
   'PYMODULE'),
  ('numpy.distutils.conv_template',
   'C:\\Users\\sspsj\\anaconda3\\envs\\Hw1\\lib\\site-packages\\numpy\\distutils\\conv_template.py',
   'PYMODULE'),
  ('numpy.distutils.from_template',
   'C:\\Users\\sspsj\\anaconda3\\envs\\Hw1\\lib\\site-packages\\numpy\\distutils\\from_template.py',
   'PYMODULE'),
  ('numpy.f2py.auxfuncs',
   'C:\\Users\\sspsj\\anaconda3\\envs\\Hw1\\lib\\site-packages\\numpy\\f2py\\auxfuncs.py',
   'PYMODULE'),
  ('numpy.f2py.f90mod_rules',
   'C:\\Users\\sspsj\\anaconda3\\envs\\Hw1\\lib\\site-packages\\numpy\\f2py\\f90mod_rules.py',
   'PYMODULE'),
  ('numpy.f2py.rules',
   'C:\\Users\\sspsj\\anaconda3\\envs\\Hw1\\lib\\site-packages\\numpy\\f2py\\rules.py',
   'PYMODULE'),
  ('numpy.f2py.use_rules',
   'C:\\Users\\sspsj\\anaconda3\\envs\\Hw1\\lib\\site-packages\\numpy\\f2py\\use_rules.py',
   'PYMODULE'),
  ('numpy.f2py.common_rules',
   'C:\\Users\\sspsj\\anaconda3\\envs\\Hw1\\lib\\site-packages\\numpy\\f2py\\common_rules.py',
   'PYMODULE'),
  ('numpy.f2py.func2subr',
   'C:\\Users\\sspsj\\anaconda3\\envs\\Hw1\\lib\\site-packages\\numpy\\f2py\\func2subr.py',
   'PYMODULE'),
  ('numpy.f2py.crackfortran',
   'C:\\Users\\sspsj\\anaconda3\\envs\\Hw1\\lib\\site-packages\\numpy\\f2py\\crackfortran.py',
   'PYMODULE'),
  ('fileinput',
   'C:\\Users\\sspsj\\anaconda3\\envs\\Hw1\\lib\\fileinput.py',
   'PYMODULE'),
  ('numpy.f2py.cb_rules',
   'C:\\Users\\sspsj\\anaconda3\\envs\\Hw1\\lib\\site-packages\\numpy\\f2py\\cb_rules.py',
   'PYMODULE'),
  ('numpy.f2py.capi_maps',
   'C:\\Users\\sspsj\\anaconda3\\envs\\Hw1\\lib\\site-packages\\numpy\\f2py\\capi_maps.py',
   'PYMODULE'),
  ('numpy.f2py.cfuncs',
   'C:\\Users\\sspsj\\anaconda3\\envs\\Hw1\\lib\\site-packages\\numpy\\f2py\\cfuncs.py',
   'PYMODULE'),
  ('numpy.f2py.__version__',
   'C:\\Users\\sspsj\\anaconda3\\envs\\Hw1\\lib\\site-packages\\numpy\\f2py\\__version__.py',
   'PYMODULE'),
  ('numpy.distutils.command.build_py',
   'C:\\Users\\sspsj\\anaconda3\\envs\\Hw1\\lib\\site-packages\\numpy\\distutils\\command\\build_py.py',
   'PYMODULE'),
  ('distutils.command.build_py',
   'C:\\Users\\sspsj\\anaconda3\\envs\\Hw1\\lib\\distutils\\command\\build_py.py',
   'PYMODULE'),
  ('numpy.distutils.command.build',
   'C:\\Users\\sspsj\\anaconda3\\envs\\Hw1\\lib\\site-packages\\numpy\\distutils\\command\\build.py',
   'PYMODULE'),
  ('distutils.command.build',
   'C:\\Users\\sspsj\\anaconda3\\envs\\Hw1\\lib\\distutils\\command\\build.py',
   'PYMODULE'),
  ('numpy.distutils.command.config',
   'C:\\Users\\sspsj\\anaconda3\\envs\\Hw1\\lib\\site-packages\\numpy\\distutils\\command\\config.py',
   'PYMODULE'),
  ('numpy.distutils.command.autodist',
   'C:\\Users\\sspsj\\anaconda3\\envs\\Hw1\\lib\\site-packages\\numpy\\distutils\\command\\autodist.py',
   'PYMODULE'),
  ('numpy.distutils.mingw32ccompiler',
   'C:\\Users\\sspsj\\anaconda3\\envs\\Hw1\\lib\\site-packages\\numpy\\distutils\\mingw32ccompiler.py',
   'PYMODULE'),
  ('distutils.msvccompiler',
   'C:\\Users\\sspsj\\anaconda3\\envs\\Hw1\\lib\\distutils\\msvccompiler.py',
   'PYMODULE'),
  ('distutils.unixccompiler',
   'C:\\Users\\sspsj\\anaconda3\\envs\\Hw1\\lib\\distutils\\unixccompiler.py',
   'PYMODULE'),
  ('distutils.cygwinccompiler',
   'C:\\Users\\sspsj\\anaconda3\\envs\\Hw1\\lib\\distutils\\cygwinccompiler.py',
   'PYMODULE'),
  ('distutils.command.config',
   'C:\\Users\\sspsj\\anaconda3\\envs\\Hw1\\lib\\distutils\\command\\config.py',
   'PYMODULE'),
  ('distutils.core',
   'C:\\Users\\sspsj\\anaconda3\\envs\\Hw1\\lib\\distutils\\core.py',
   'PYMODULE'),
  ('distutils.config',
   'C:\\Users\\sspsj\\anaconda3\\envs\\Hw1\\lib\\distutils\\config.py',
   'PYMODULE'),
  ('cgi', 'C:\\Users\\sspsj\\anaconda3\\envs\\Hw1\\lib\\cgi.py', 'PYMODULE'),
  ('distutils.dist',
   'C:\\Users\\sspsj\\anaconda3\\envs\\Hw1\\lib\\distutils\\dist.py',
   'PYMODULE'),
  ('distutils.versionpredicate',
   'C:\\Users\\sspsj\\anaconda3\\envs\\Hw1\\lib\\distutils\\versionpredicate.py',
   'PYMODULE'),
  ('numpy.distutils.core',
   'C:\\Users\\sspsj\\anaconda3\\envs\\Hw1\\lib\\site-packages\\numpy\\distutils\\core.py',
   'PYMODULE'),
  ('numpy.distutils.numpy_distribution',
   'C:\\Users\\sspsj\\anaconda3\\envs\\Hw1\\lib\\site-packages\\numpy\\distutils\\numpy_distribution.py',
   'PYMODULE'),
  ('numpy.distutils.extension',
   'C:\\Users\\sspsj\\anaconda3\\envs\\Hw1\\lib\\site-packages\\numpy\\distutils\\extension.py',
   'PYMODULE'),
  ('numpy.distutils.fcompiler.environment',
   'C:\\Users\\sspsj\\anaconda3\\envs\\Hw1\\lib\\site-packages\\numpy\\distutils\\fcompiler\\environment.py',
   'PYMODULE'),
  ('numpy.distutils.exec_command',
   'C:\\Users\\sspsj\\anaconda3\\envs\\Hw1\\lib\\site-packages\\numpy\\distutils\\exec_command.py',
   'PYMODULE'),
  ('numpy.distutils.misc_util',
   'C:\\Users\\sspsj\\anaconda3\\envs\\Hw1\\lib\\site-packages\\numpy\\distutils\\misc_util.py',
   'PYMODULE'),
  ('curses',
   'C:\\Users\\sspsj\\anaconda3\\envs\\Hw1\\lib\\curses\\__init__.py',
   'PYMODULE'),
  ('curses.has_key',
   'C:\\Users\\sspsj\\anaconda3\\envs\\Hw1\\lib\\curses\\has_key.py',
   'PYMODULE'),
  ('numpy.distutils.__config__',
   'C:\\Users\\sspsj\\anaconda3\\envs\\Hw1\\lib\\site-packages\\numpy\\distutils\\__config__.py',
   'PYMODULE'),
  ('numpy.distutils.npy_pkg_config',
   'C:\\Users\\sspsj\\anaconda3\\envs\\Hw1\\lib\\site-packages\\numpy\\distutils\\npy_pkg_config.py',
   'PYMODULE'),
  ('numpy.distutils.unixccompiler',
   'C:\\Users\\sspsj\\anaconda3\\envs\\Hw1\\lib\\site-packages\\numpy\\distutils\\unixccompiler.py',
   'PYMODULE'),
  ('numpy.distutils.ccompiler',
   'C:\\Users\\sspsj\\anaconda3\\envs\\Hw1\\lib\\site-packages\\numpy\\distutils\\ccompiler.py',
   'PYMODULE'),
  ('numpy.distutils._shell_utils',
   'C:\\Users\\sspsj\\anaconda3\\envs\\Hw1\\lib\\site-packages\\numpy\\distutils\\_shell_utils.py',
   'PYMODULE'),
  ('pipes',
   'C:\\Users\\sspsj\\anaconda3\\envs\\Hw1\\lib\\pipes.py',
   'PYMODULE'),
  ('numpy.distutils.lib2def',
   'C:\\Users\\sspsj\\anaconda3\\envs\\Hw1\\lib\\site-packages\\numpy\\distutils\\lib2def.py',
   'PYMODULE'),
  ('numpy.distutils.log',
   'C:\\Users\\sspsj\\anaconda3\\envs\\Hw1\\lib\\site-packages\\numpy\\distutils\\log.py',
   'PYMODULE'),
  ('numpy.testing',
   'C:\\Users\\sspsj\\anaconda3\\envs\\Hw1\\lib\\site-packages\\numpy\\testing\\__init__.py',
   'PYMODULE'),
  ('numpy.testing._private.nosetester',
   'C:\\Users\\sspsj\\anaconda3\\envs\\Hw1\\lib\\site-packages\\numpy\\testing\\_private\\nosetester.py',
   'PYMODULE'),
  ('numpy.testing._private.noseclasses',
   'C:\\Users\\sspsj\\anaconda3\\envs\\Hw1\\lib\\site-packages\\numpy\\testing\\_private\\noseclasses.py',
   'PYMODULE'),
  ('numpy.testing._private.decorators',
   'C:\\Users\\sspsj\\anaconda3\\envs\\Hw1\\lib\\site-packages\\numpy\\testing\\_private\\decorators.py',
   'PYMODULE'),
  ('numpy.testing._private.parameterized',
   'C:\\Users\\sspsj\\anaconda3\\envs\\Hw1\\lib\\site-packages\\numpy\\testing\\_private\\parameterized.py',
   'PYMODULE'),
  ('numpy.testing._private',
   'C:\\Users\\sspsj\\anaconda3\\envs\\Hw1\\lib\\site-packages\\numpy\\testing\\_private\\__init__.py',
   'PYMODULE'),
  ('numpy.testing._private.utils',
   'C:\\Users\\sspsj\\anaconda3\\envs\\Hw1\\lib\\site-packages\\numpy\\testing\\_private\\utils.py',
   'PYMODULE'),
  ('numpy.core.fromnumeric',
   'C:\\Users\\sspsj\\anaconda3\\envs\\Hw1\\lib\\site-packages\\numpy\\core\\fromnumeric.py',
   'PYMODULE'),
  ('numpy.core._methods',
   'C:\\Users\\sspsj\\anaconda3\\envs\\Hw1\\lib\\site-packages\\numpy\\core\\_methods.py',
   'PYMODULE'),
  ('numpy.core._exceptions',
   'C:\\Users\\sspsj\\anaconda3\\envs\\Hw1\\lib\\site-packages\\numpy\\core\\_exceptions.py',
   'PYMODULE'),
  ('numpy.core._asarray',
   'C:\\Users\\sspsj\\anaconda3\\envs\\Hw1\\lib\\site-packages\\numpy\\core\\_asarray.py',
   'PYMODULE'),
  ('numpy.core.umath',
   'C:\\Users\\sspsj\\anaconda3\\envs\\Hw1\\lib\\site-packages\\numpy\\core\\umath.py',
   'PYMODULE'),
  ('numpy.core.overrides',
   'C:\\Users\\sspsj\\anaconda3\\envs\\Hw1\\lib\\site-packages\\numpy\\core\\overrides.py',
   'PYMODULE'),
  ('numpy.compat._inspect',
   'C:\\Users\\sspsj\\anaconda3\\envs\\Hw1\\lib\\site-packages\\numpy\\compat\\_inspect.py',
   'PYMODULE'),
  ('numpy.core.multiarray',
   'C:\\Users\\sspsj\\anaconda3\\envs\\Hw1\\lib\\site-packages\\numpy\\core\\multiarray.py',
   'PYMODULE'),
  ('numpy.core.numerictypes',
   'C:\\Users\\sspsj\\anaconda3\\envs\\Hw1\\lib\\site-packages\\numpy\\core\\numerictypes.py',
   'PYMODULE'),
  ('numpy.core._dtype',
   'C:\\Users\\sspsj\\anaconda3\\envs\\Hw1\\lib\\site-packages\\numpy\\core\\_dtype.py',
   'PYMODULE'),
  ('numpy.core._type_aliases',
   'C:\\Users\\sspsj\\anaconda3\\envs\\Hw1\\lib\\site-packages\\numpy\\core\\_type_aliases.py',
   'PYMODULE'),
  ('numpy.core._string_helpers',
   'C:\\Users\\sspsj\\anaconda3\\envs\\Hw1\\lib\\site-packages\\numpy\\core\\_string_helpers.py',
   'PYMODULE'),
  ('numpy.matrixlib',
   'C:\\Users\\sspsj\\anaconda3\\envs\\Hw1\\lib\\site-packages\\numpy\\matrixlib\\__init__.py',
   'PYMODULE'),
  ('numpy.matrixlib.defmatrix',
   'C:\\Users\\sspsj\\anaconda3\\envs\\Hw1\\lib\\site-packages\\numpy\\matrixlib\\defmatrix.py',
   'PYMODULE'),
  ('numpy.dual',
   'C:\\Users\\sspsj\\anaconda3\\envs\\Hw1\\lib\\site-packages\\numpy\\dual.py',
   'PYMODULE'),
  ('numpy.core.numeric',
   'C:\\Users\\sspsj\\anaconda3\\envs\\Hw1\\lib\\site-packages\\numpy\\core\\numeric.py',
   'PYMODULE'),
  ('numpy.core.arrayprint',
   'C:\\Users\\sspsj\\anaconda3\\envs\\Hw1\\lib\\site-packages\\numpy\\core\\arrayprint.py',
   'PYMODULE'),
  ('numpy.core._ufunc_config',
   'C:\\Users\\sspsj\\anaconda3\\envs\\Hw1\\lib\\site-packages\\numpy\\core\\_ufunc_config.py',
   'PYMODULE'),
  ('numpy.core.shape_base',
   'C:\\Users\\sspsj\\anaconda3\\envs\\Hw1\\lib\\site-packages\\numpy\\core\\shape_base.py',
   'PYMODULE'),
  ('numpy.ma',
   'C:\\Users\\sspsj\\anaconda3\\envs\\Hw1\\lib\\site-packages\\numpy\\ma\\__init__.py',
   'PYMODULE'),
  ('numpy.ma.extras',
   'C:\\Users\\sspsj\\anaconda3\\envs\\Hw1\\lib\\site-packages\\numpy\\ma\\extras.py',
   'PYMODULE'),
  ('numpy.lib.index_tricks',
   'C:\\Users\\sspsj\\anaconda3\\envs\\Hw1\\lib\\site-packages\\numpy\\lib\\index_tricks.py',
   'PYMODULE'),
  ('numpy.lib.stride_tricks',
   'C:\\Users\\sspsj\\anaconda3\\envs\\Hw1\\lib\\site-packages\\numpy\\lib\\stride_tricks.py',
   'PYMODULE'),
  ('numpy.lib.function_base',
   'C:\\Users\\sspsj\\anaconda3\\envs\\Hw1\\lib\\site-packages\\numpy\\lib\\function_base.py',
   'PYMODULE'),
  ('numpy.lib.histograms',
   'C:\\Users\\sspsj\\anaconda3\\envs\\Hw1\\lib\\site-packages\\numpy\\lib\\histograms.py',
   'PYMODULE'),
  ('numpy.lib.twodim_base',
   'C:\\Users\\sspsj\\anaconda3\\envs\\Hw1\\lib\\site-packages\\numpy\\lib\\twodim_base.py',
   'PYMODULE'),
  ('numpy.core.function_base',
   'C:\\Users\\sspsj\\anaconda3\\envs\\Hw1\\lib\\site-packages\\numpy\\core\\function_base.py',
   'PYMODULE'),
  ('numpy.ma.core',
   'C:\\Users\\sspsj\\anaconda3\\envs\\Hw1\\lib\\site-packages\\numpy\\ma\\core.py',
   'PYMODULE'),
  ('numpy.core._internal',
   'C:\\Users\\sspsj\\anaconda3\\envs\\Hw1\\lib\\site-packages\\numpy\\core\\_internal.py',
   'PYMODULE'),
  ('numpy.ctypeslib',
   'C:\\Users\\sspsj\\anaconda3\\envs\\Hw1\\lib\\site-packages\\numpy\\ctypeslib.py',
   'PYMODULE'),
  ('numpy.random',
   'C:\\Users\\sspsj\\anaconda3\\envs\\Hw1\\lib\\site-packages\\numpy\\random\\__init__.py',
   'PYMODULE'),
  ('numpy.random._pickle',
   'C:\\Users\\sspsj\\anaconda3\\envs\\Hw1\\lib\\site-packages\\numpy\\random\\_pickle.py',
   'PYMODULE'),
  ('numpy.polynomial',
   'C:\\Users\\sspsj\\anaconda3\\envs\\Hw1\\lib\\site-packages\\numpy\\polynomial\\__init__.py',
   'PYMODULE'),
  ('numpy.polynomial.laguerre',
   'C:\\Users\\sspsj\\anaconda3\\envs\\Hw1\\lib\\site-packages\\numpy\\polynomial\\laguerre.py',
   'PYMODULE'),
  ('numpy.polynomial._polybase',
   'C:\\Users\\sspsj\\anaconda3\\envs\\Hw1\\lib\\site-packages\\numpy\\polynomial\\_polybase.py',
   'PYMODULE'),
  ('numpy.polynomial.hermite_e',
   'C:\\Users\\sspsj\\anaconda3\\envs\\Hw1\\lib\\site-packages\\numpy\\polynomial\\hermite_e.py',
   'PYMODULE'),
  ('numpy.polynomial.hermite',
   'C:\\Users\\sspsj\\anaconda3\\envs\\Hw1\\lib\\site-packages\\numpy\\polynomial\\hermite.py',
   'PYMODULE'),
  ('numpy.polynomial.legendre',
   'C:\\Users\\sspsj\\anaconda3\\envs\\Hw1\\lib\\site-packages\\numpy\\polynomial\\legendre.py',
   'PYMODULE'),
  ('numpy.polynomial.chebyshev',
   'C:\\Users\\sspsj\\anaconda3\\envs\\Hw1\\lib\\site-packages\\numpy\\polynomial\\chebyshev.py',
   'PYMODULE'),
  ('numpy.polynomial.polynomial',
   'C:\\Users\\sspsj\\anaconda3\\envs\\Hw1\\lib\\site-packages\\numpy\\polynomial\\polynomial.py',
   'PYMODULE'),
  ('numpy.polynomial.polyutils',
   'C:\\Users\\sspsj\\anaconda3\\envs\\Hw1\\lib\\site-packages\\numpy\\polynomial\\polyutils.py',
   'PYMODULE'),
  ('numpy.fft',
   'C:\\Users\\sspsj\\anaconda3\\envs\\Hw1\\lib\\site-packages\\numpy\\fft\\__init__.py',
   'PYMODULE'),
  ('numpy.fft.helper',
   'C:\\Users\\sspsj\\anaconda3\\envs\\Hw1\\lib\\site-packages\\numpy\\fft\\helper.py',
   'PYMODULE'),
  ('numpy.fft._pocketfft',
   'C:\\Users\\sspsj\\anaconda3\\envs\\Hw1\\lib\\site-packages\\numpy\\fft\\_pocketfft.py',
   'PYMODULE'),
  ('numpy.linalg',
   'C:\\Users\\sspsj\\anaconda3\\envs\\Hw1\\lib\\site-packages\\numpy\\linalg\\__init__.py',
   'PYMODULE'),
  ('numpy.linalg.linalg',
   'C:\\Users\\sspsj\\anaconda3\\envs\\Hw1\\lib\\site-packages\\numpy\\linalg\\linalg.py',
   'PYMODULE'),
  ('numpy.lib',
   'C:\\Users\\sspsj\\anaconda3\\envs\\Hw1\\lib\\site-packages\\numpy\\lib\\__init__.py',
   'PYMODULE'),
  ('numpy.lib._version',
   'C:\\Users\\sspsj\\anaconda3\\envs\\Hw1\\lib\\site-packages\\numpy\\lib\\_version.py',
   'PYMODULE'),
  ('numpy.lib.arraypad',
   'C:\\Users\\sspsj\\anaconda3\\envs\\Hw1\\lib\\site-packages\\numpy\\lib\\arraypad.py',
   'PYMODULE'),
  ('numpy.lib.arrayterator',
   'C:\\Users\\sspsj\\anaconda3\\envs\\Hw1\\lib\\site-packages\\numpy\\lib\\arrayterator.py',
   'PYMODULE'),
  ('numpy.lib.financial',
   'C:\\Users\\sspsj\\anaconda3\\envs\\Hw1\\lib\\site-packages\\numpy\\lib\\financial.py',
   'PYMODULE'),
  ('numpy.lib.npyio',
   'C:\\Users\\sspsj\\anaconda3\\envs\\Hw1\\lib\\site-packages\\numpy\\lib\\npyio.py',
   'PYMODULE'),
  ('numpy.ma.mrecords',
   'C:\\Users\\sspsj\\anaconda3\\envs\\Hw1\\lib\\site-packages\\numpy\\ma\\mrecords.py',
   'PYMODULE'),
  ('numpy.core.records',
   'C:\\Users\\sspsj\\anaconda3\\envs\\Hw1\\lib\\site-packages\\numpy\\core\\records.py',
   'PYMODULE'),
  ('numpy.lib._iotools',
   'C:\\Users\\sspsj\\anaconda3\\envs\\Hw1\\lib\\site-packages\\numpy\\lib\\_iotools.py',
   'PYMODULE'),
  ('numpy.lib._datasource',
   'C:\\Users\\sspsj\\anaconda3\\envs\\Hw1\\lib\\site-packages\\numpy\\lib\\_datasource.py',
   'PYMODULE'),
  ('numpy.lib.format',
   'C:\\Users\\sspsj\\anaconda3\\envs\\Hw1\\lib\\site-packages\\numpy\\lib\\format.py',
   'PYMODULE'),
  ('numpy.lib.arraysetops',
   'C:\\Users\\sspsj\\anaconda3\\envs\\Hw1\\lib\\site-packages\\numpy\\lib\\arraysetops.py',
   'PYMODULE'),
  ('numpy.lib.utils',
   'C:\\Users\\sspsj\\anaconda3\\envs\\Hw1\\lib\\site-packages\\numpy\\lib\\utils.py',
   'PYMODULE'),
  ('numpy.lib.polynomial',
   'C:\\Users\\sspsj\\anaconda3\\envs\\Hw1\\lib\\site-packages\\numpy\\lib\\polynomial.py',
   'PYMODULE'),
  ('numpy.lib.ufunclike',
   'C:\\Users\\sspsj\\anaconda3\\envs\\Hw1\\lib\\site-packages\\numpy\\lib\\ufunclike.py',
   'PYMODULE'),
  ('numpy.lib.shape_base',
   'C:\\Users\\sspsj\\anaconda3\\envs\\Hw1\\lib\\site-packages\\numpy\\lib\\shape_base.py',
   'PYMODULE'),
  ('numpy.lib.nanfunctions',
   'C:\\Users\\sspsj\\anaconda3\\envs\\Hw1\\lib\\site-packages\\numpy\\lib\\nanfunctions.py',
   'PYMODULE'),
  ('numpy.lib.type_check',
   'C:\\Users\\sspsj\\anaconda3\\envs\\Hw1\\lib\\site-packages\\numpy\\lib\\type_check.py',
   'PYMODULE'),
  ('numpy.core.getlimits',
   'C:\\Users\\sspsj\\anaconda3\\envs\\Hw1\\lib\\site-packages\\numpy\\core\\getlimits.py',
   'PYMODULE'),
  ('numpy.core.machar',
   'C:\\Users\\sspsj\\anaconda3\\envs\\Hw1\\lib\\site-packages\\numpy\\core\\machar.py',
   'PYMODULE'),
  ('numpy.lib.scimath',
   'C:\\Users\\sspsj\\anaconda3\\envs\\Hw1\\lib\\site-packages\\numpy\\lib\\scimath.py',
   'PYMODULE'),
  ('numpy.lib.mixins',
   'C:\\Users\\sspsj\\anaconda3\\envs\\Hw1\\lib\\site-packages\\numpy\\lib\\mixins.py',
   'PYMODULE'),
  ('numpy.compat',
   'C:\\Users\\sspsj\\anaconda3\\envs\\Hw1\\lib\\site-packages\\numpy\\compat\\__init__.py',
   'PYMODULE'),
  ('numpy.compat.py3k',
   'C:\\Users\\sspsj\\anaconda3\\envs\\Hw1\\lib\\site-packages\\numpy\\compat\\py3k.py',
   'PYMODULE'),
  ('pathlib',
   'C:\\Users\\sspsj\\anaconda3\\envs\\Hw1\\lib\\pathlib.py',
   'PYMODULE'),
  ('numpy.core',
   'C:\\Users\\sspsj\\anaconda3\\envs\\Hw1\\lib\\site-packages\\numpy\\core\\__init__.py',
   'PYMODULE'),
  ('numpy.core._dtype_ctypes',
   'C:\\Users\\sspsj\\anaconda3\\envs\\Hw1\\lib\\site-packages\\numpy\\core\\_dtype_ctypes.py',
   'PYMODULE'),
  ('numpy.core._add_newdocs',
   'C:\\Users\\sspsj\\anaconda3\\envs\\Hw1\\lib\\site-packages\\numpy\\core\\_add_newdocs.py',
   'PYMODULE'),
  ('numpy.core.einsumfunc',
   'C:\\Users\\sspsj\\anaconda3\\envs\\Hw1\\lib\\site-packages\\numpy\\core\\einsumfunc.py',
   'PYMODULE'),
  ('numpy.core.memmap',
   'C:\\Users\\sspsj\\anaconda3\\envs\\Hw1\\lib\\site-packages\\numpy\\core\\memmap.py',
   'PYMODULE'),
  ('numpy.core.defchararray',
   'C:\\Users\\sspsj\\anaconda3\\envs\\Hw1\\lib\\site-packages\\numpy\\core\\defchararray.py',
   'PYMODULE'),
  ('numpy._distributor_init',
   'C:\\Users\\sspsj\\anaconda3\\envs\\Hw1\\lib\\site-packages\\numpy\\_distributor_init.py',
   'PYMODULE'),
  ('numpy.version',
   'C:\\Users\\sspsj\\anaconda3\\envs\\Hw1\\lib\\site-packages\\numpy\\version.py',
   'PYMODULE'),
  ('numpy.__config__',
   'C:\\Users\\sspsj\\anaconda3\\envs\\Hw1\\lib\\site-packages\\numpy\\__config__.py',
   'PYMODULE'),
  ('numpy._globals',
   'C:\\Users\\sspsj\\anaconda3\\envs\\Hw1\\lib\\site-packages\\numpy\\_globals.py',
   'PYMODULE'),
  ('PIL.ImageDraw',
   'C:\\Users\\sspsj\\anaconda3\\envs\\Hw1\\lib\\site-packages\\PIL\\ImageDraw.py',
   'PYMODULE'),
  ('PIL.ImageDraw2',
   'C:\\Users\\sspsj\\anaconda3\\envs\\Hw1\\lib\\site-packages\\PIL\\ImageDraw2.py',
   'PYMODULE'),
  ('PIL.ImagePath',
   'C:\\Users\\sspsj\\anaconda3\\envs\\Hw1\\lib\\site-packages\\PIL\\ImagePath.py',
   'PYMODULE'),
  ('PIL.ImageFont',
   'C:\\Users\\sspsj\\anaconda3\\envs\\Hw1\\lib\\site-packages\\PIL\\ImageFont.py',
   'PYMODULE'),
  ('PIL._util',
   'C:\\Users\\sspsj\\anaconda3\\envs\\Hw1\\lib\\site-packages\\PIL\\_util.py',
   'PYMODULE'),
  ('PIL.ImageColor',
   'C:\\Users\\sspsj\\anaconda3\\envs\\Hw1\\lib\\site-packages\\PIL\\ImageColor.py',
   'PYMODULE'),
  ('colorsys',
   'C:\\Users\\sspsj\\anaconda3\\envs\\Hw1\\lib\\colorsys.py',
   'PYMODULE'),
  ('PIL.ImageTk',
   'C:\\Users\\sspsj\\anaconda3\\envs\\Hw1\\lib\\site-packages\\PIL\\ImageTk.py',
   'PYMODULE'),
  ('PIL.Image',
   'C:\\Users\\sspsj\\anaconda3\\envs\\Hw1\\lib\\site-packages\\PIL\\Image.py',
   'PYMODULE'),
  ('PIL.Hdf5StubImagePlugin',
   'C:\\Users\\sspsj\\anaconda3\\envs\\Hw1\\lib\\site-packages\\PIL\\Hdf5StubImagePlugin.py',
   'PYMODULE'),
  ('PIL.ImageFile',
   'C:\\Users\\sspsj\\anaconda3\\envs\\Hw1\\lib\\site-packages\\PIL\\ImageFile.py',
   'PYMODULE'),
  ('PIL.PixarImagePlugin',
   'C:\\Users\\sspsj\\anaconda3\\envs\\Hw1\\lib\\site-packages\\PIL\\PixarImagePlugin.py',
   'PYMODULE'),
  ('PIL.BlpImagePlugin',
   'C:\\Users\\sspsj\\anaconda3\\envs\\Hw1\\lib\\site-packages\\PIL\\BlpImagePlugin.py',
   'PYMODULE'),
  ('PIL.EpsImagePlugin',
   'C:\\Users\\sspsj\\anaconda3\\envs\\Hw1\\lib\\site-packages\\PIL\\EpsImagePlugin.py',
   'PYMODULE'),
  ('PIL.PcxImagePlugin',
   'C:\\Users\\sspsj\\anaconda3\\envs\\Hw1\\lib\\site-packages\\PIL\\PcxImagePlugin.py',
   'PYMODULE'),
  ('PIL.IcnsImagePlugin',
   'C:\\Users\\sspsj\\anaconda3\\envs\\Hw1\\lib\\site-packages\\PIL\\IcnsImagePlugin.py',
   'PYMODULE'),
  ('PIL.features',
   'C:\\Users\\sspsj\\anaconda3\\envs\\Hw1\\lib\\site-packages\\PIL\\features.py',
   'PYMODULE'),
  ('PIL.PcdImagePlugin',
   'C:\\Users\\sspsj\\anaconda3\\envs\\Hw1\\lib\\site-packages\\PIL\\PcdImagePlugin.py',
   'PYMODULE'),
  ('PIL.DcxImagePlugin',
   'C:\\Users\\sspsj\\anaconda3\\envs\\Hw1\\lib\\site-packages\\PIL\\DcxImagePlugin.py',
   'PYMODULE'),
  ('PIL.PalmImagePlugin',
   'C:\\Users\\sspsj\\anaconda3\\envs\\Hw1\\lib\\site-packages\\PIL\\PalmImagePlugin.py',
   'PYMODULE'),
  ('PIL.PsdImagePlugin',
   'C:\\Users\\sspsj\\anaconda3\\envs\\Hw1\\lib\\site-packages\\PIL\\PsdImagePlugin.py',
   'PYMODULE'),
  ('PIL.FitsStubImagePlugin',
   'C:\\Users\\sspsj\\anaconda3\\envs\\Hw1\\lib\\site-packages\\PIL\\FitsStubImagePlugin.py',
   'PYMODULE'),
  ('PIL.MspImagePlugin',
   'C:\\Users\\sspsj\\anaconda3\\envs\\Hw1\\lib\\site-packages\\PIL\\MspImagePlugin.py',
   'PYMODULE'),
  ('PIL.XVThumbImagePlugin',
   'C:\\Users\\sspsj\\anaconda3\\envs\\Hw1\\lib\\site-packages\\PIL\\XVThumbImagePlugin.py',
   'PYMODULE'),
  ('PIL.CurImagePlugin',
   'C:\\Users\\sspsj\\anaconda3\\envs\\Hw1\\lib\\site-packages\\PIL\\CurImagePlugin.py',
   'PYMODULE'),
  ('PIL.IcoImagePlugin',
   'C:\\Users\\sspsj\\anaconda3\\envs\\Hw1\\lib\\site-packages\\PIL\\IcoImagePlugin.py',
   'PYMODULE'),
  ('PIL.ImtImagePlugin',
   'C:\\Users\\sspsj\\anaconda3\\envs\\Hw1\\lib\\site-packages\\PIL\\ImtImagePlugin.py',
   'PYMODULE'),
  ('PIL.WmfImagePlugin',
   'C:\\Users\\sspsj\\anaconda3\\envs\\Hw1\\lib\\site-packages\\PIL\\WmfImagePlugin.py',
   'PYMODULE'),
  ('PIL.MicImagePlugin',
   'C:\\Users\\sspsj\\anaconda3\\envs\\Hw1\\lib\\site-packages\\PIL\\MicImagePlugin.py',
   'PYMODULE'),
  ('olefile',
   'C:\\Users\\sspsj\\anaconda3\\envs\\Hw1\\lib\\site-packages\\olefile\\__init__.py',
   'PYMODULE'),
  ('olefile.olefile',
   'C:\\Users\\sspsj\\anaconda3\\envs\\Hw1\\lib\\site-packages\\olefile\\olefile.py',
   'PYMODULE'),
  ('PIL.WebPImagePlugin',
   'C:\\Users\\sspsj\\anaconda3\\envs\\Hw1\\lib\\site-packages\\PIL\\WebPImagePlugin.py',
   'PYMODULE'),
  ('PIL.FpxImagePlugin',
   'C:\\Users\\sspsj\\anaconda3\\envs\\Hw1\\lib\\site-packages\\PIL\\FpxImagePlugin.py',
   'PYMODULE'),
  ('PIL.PdfImagePlugin',
   'C:\\Users\\sspsj\\anaconda3\\envs\\Hw1\\lib\\site-packages\\PIL\\PdfImagePlugin.py',
   'PYMODULE'),
  ('PIL.PdfParser',
   'C:\\Users\\sspsj\\anaconda3\\envs\\Hw1\\lib\\site-packages\\PIL\\PdfParser.py',
   'PYMODULE'),
  ('PIL.ImageSequence',
   'C:\\Users\\sspsj\\anaconda3\\envs\\Hw1\\lib\\site-packages\\PIL\\ImageSequence.py',
   'PYMODULE'),
  ('PIL.DdsImagePlugin',
   'C:\\Users\\sspsj\\anaconda3\\envs\\Hw1\\lib\\site-packages\\PIL\\DdsImagePlugin.py',
   'PYMODULE'),
  ('PIL.XbmImagePlugin',
   'C:\\Users\\sspsj\\anaconda3\\envs\\Hw1\\lib\\site-packages\\PIL\\XbmImagePlugin.py',
   'PYMODULE'),
  ('PIL.FliImagePlugin',
   'C:\\Users\\sspsj\\anaconda3\\envs\\Hw1\\lib\\site-packages\\PIL\\FliImagePlugin.py',
   'PYMODULE'),
  ('PIL.SpiderImagePlugin',
   'C:\\Users\\sspsj\\anaconda3\\envs\\Hw1\\lib\\site-packages\\PIL\\SpiderImagePlugin.py',
   'PYMODULE'),
  ('PIL.FtexImagePlugin',
   'C:\\Users\\sspsj\\anaconda3\\envs\\Hw1\\lib\\site-packages\\PIL\\FtexImagePlugin.py',
   'PYMODULE'),
  ('PIL.SgiImagePlugin',
   'C:\\Users\\sspsj\\anaconda3\\envs\\Hw1\\lib\\site-packages\\PIL\\SgiImagePlugin.py',
   'PYMODULE'),
  ('PIL.McIdasImagePlugin',
   'C:\\Users\\sspsj\\anaconda3\\envs\\Hw1\\lib\\site-packages\\PIL\\McIdasImagePlugin.py',
   'PYMODULE'),
  ('PIL.IptcImagePlugin',
   'C:\\Users\\sspsj\\anaconda3\\envs\\Hw1\\lib\\site-packages\\PIL\\IptcImagePlugin.py',
   'PYMODULE'),
  ('PIL.MpoImagePlugin',
   'C:\\Users\\sspsj\\anaconda3\\envs\\Hw1\\lib\\site-packages\\PIL\\MpoImagePlugin.py',
   'PYMODULE'),
  ('PIL.GbrImagePlugin',
   'C:\\Users\\sspsj\\anaconda3\\envs\\Hw1\\lib\\site-packages\\PIL\\GbrImagePlugin.py',
   'PYMODULE'),
  ('PIL.SunImagePlugin',
   'C:\\Users\\sspsj\\anaconda3\\envs\\Hw1\\lib\\site-packages\\PIL\\SunImagePlugin.py',
   'PYMODULE'),
  ('PIL.GribStubImagePlugin',
   'C:\\Users\\sspsj\\anaconda3\\envs\\Hw1\\lib\\site-packages\\PIL\\GribStubImagePlugin.py',
   'PYMODULE'),
  ('PIL.ImImagePlugin',
   'C:\\Users\\sspsj\\anaconda3\\envs\\Hw1\\lib\\site-packages\\PIL\\ImImagePlugin.py',
   'PYMODULE'),
  ('PIL.TgaImagePlugin',
   'C:\\Users\\sspsj\\anaconda3\\envs\\Hw1\\lib\\site-packages\\PIL\\TgaImagePlugin.py',
   'PYMODULE'),
  ('PIL.BufrStubImagePlugin',
   'C:\\Users\\sspsj\\anaconda3\\envs\\Hw1\\lib\\site-packages\\PIL\\BufrStubImagePlugin.py',
   'PYMODULE'),
  ('PIL.XpmImagePlugin',
   'C:\\Users\\sspsj\\anaconda3\\envs\\Hw1\\lib\\site-packages\\PIL\\XpmImagePlugin.py',
   'PYMODULE'),
  ('PIL.MpegImagePlugin',
   'C:\\Users\\sspsj\\anaconda3\\envs\\Hw1\\lib\\site-packages\\PIL\\MpegImagePlugin.py',
   'PYMODULE'),
  ('PIL.Jpeg2KImagePlugin',
   'C:\\Users\\sspsj\\anaconda3\\envs\\Hw1\\lib\\site-packages\\PIL\\Jpeg2KImagePlugin.py',
   'PYMODULE'),
  ('PIL.TiffImagePlugin',
   'C:\\Users\\sspsj\\anaconda3\\envs\\Hw1\\lib\\site-packages\\PIL\\TiffImagePlugin.py',
   'PYMODULE'),
  ('fractions',
   'C:\\Users\\sspsj\\anaconda3\\envs\\Hw1\\lib\\fractions.py',
   'PYMODULE'),
  ('PIL.ImageShow',
   'C:\\Users\\sspsj\\anaconda3\\envs\\Hw1\\lib\\site-packages\\PIL\\ImageShow.py',
   'PYMODULE'),
  ('PIL.ImageQt',
   'C:\\Users\\sspsj\\anaconda3\\envs\\Hw1\\lib\\site-packages\\PIL\\ImageQt.py',
   'PYMODULE'),
  ('PIL.ImageFilter',
   'C:\\Users\\sspsj\\anaconda3\\envs\\Hw1\\lib\\site-packages\\PIL\\ImageFilter.py',
   'PYMODULE'),
  ('PIL.PyAccess',
   'C:\\Users\\sspsj\\anaconda3\\envs\\Hw1\\lib\\site-packages\\PIL\\PyAccess.py',
   'PYMODULE'),
  ('PIL.ImagePalette',
   'C:\\Users\\sspsj\\anaconda3\\envs\\Hw1\\lib\\site-packages\\PIL\\ImagePalette.py',
   'PYMODULE'),
  ('PIL.PaletteFile',
   'C:\\Users\\sspsj\\anaconda3\\envs\\Hw1\\lib\\site-packages\\PIL\\PaletteFile.py',
   'PYMODULE'),
  ('PIL.GimpPaletteFile',
   'C:\\Users\\sspsj\\anaconda3\\envs\\Hw1\\lib\\site-packages\\PIL\\GimpPaletteFile.py',
   'PYMODULE'),
  ('PIL.GimpGradientFile',
   'C:\\Users\\sspsj\\anaconda3\\envs\\Hw1\\lib\\site-packages\\PIL\\GimpGradientFile.py',
   'PYMODULE'),
  ('PIL.PngImagePlugin',
   'C:\\Users\\sspsj\\anaconda3\\envs\\Hw1\\lib\\site-packages\\PIL\\PngImagePlugin.py',
   'PYMODULE'),
  ('PIL.ImageChops',
   'C:\\Users\\sspsj\\anaconda3\\envs\\Hw1\\lib\\site-packages\\PIL\\ImageChops.py',
   'PYMODULE'),
  ('PIL.PpmImagePlugin',
   'C:\\Users\\sspsj\\anaconda3\\envs\\Hw1\\lib\\site-packages\\PIL\\PpmImagePlugin.py',
   'PYMODULE'),
  ('PIL.JpegImagePlugin',
   'C:\\Users\\sspsj\\anaconda3\\envs\\Hw1\\lib\\site-packages\\PIL\\JpegImagePlugin.py',
   'PYMODULE'),
  ('PIL.JpegPresets',
   'C:\\Users\\sspsj\\anaconda3\\envs\\Hw1\\lib\\site-packages\\PIL\\JpegPresets.py',
   'PYMODULE'),
  ('PIL.GifImagePlugin',
   'C:\\Users\\sspsj\\anaconda3\\envs\\Hw1\\lib\\site-packages\\PIL\\GifImagePlugin.py',
   'PYMODULE'),
  ('PIL.BmpImagePlugin',
   'C:\\Users\\sspsj\\anaconda3\\envs\\Hw1\\lib\\site-packages\\PIL\\BmpImagePlugin.py',
   'PYMODULE'),
  ('PIL._binary',
   'C:\\Users\\sspsj\\anaconda3\\envs\\Hw1\\lib\\site-packages\\PIL\\_binary.py',
   'PYMODULE'),
  ('PIL.TiffTags',
   'C:\\Users\\sspsj\\anaconda3\\envs\\Hw1\\lib\\site-packages\\PIL\\TiffTags.py',
   'PYMODULE'),
  ('PIL.ImageMode',
   'C:\\Users\\sspsj\\anaconda3\\envs\\Hw1\\lib\\site-packages\\PIL\\ImageMode.py',
   'PYMODULE'),
  ('xml.etree.ElementTree',
   'C:\\Users\\sspsj\\anaconda3\\envs\\Hw1\\lib\\xml\\etree\\ElementTree.py',
   'PYMODULE'),
  ('xml.etree.cElementTree',
   'C:\\Users\\sspsj\\anaconda3\\envs\\Hw1\\lib\\xml\\etree\\cElementTree.py',
   'PYMODULE'),
  ('xml.etree.ElementInclude',
   'C:\\Users\\sspsj\\anaconda3\\envs\\Hw1\\lib\\xml\\etree\\ElementInclude.py',
   'PYMODULE'),
  ('xml.etree.ElementPath',
   'C:\\Users\\sspsj\\anaconda3\\envs\\Hw1\\lib\\xml\\etree\\ElementPath.py',
   'PYMODULE'),
  ('xml.etree',
   'C:\\Users\\sspsj\\anaconda3\\envs\\Hw1\\lib\\xml\\etree\\__init__.py',
   'PYMODULE'),
  ('PIL',
   'C:\\Users\\sspsj\\anaconda3\\envs\\Hw1\\lib\\site-packages\\PIL\\__init__.py',
   'PYMODULE'),
  ('PIL._version',
   'C:\\Users\\sspsj\\anaconda3\\envs\\Hw1\\lib\\site-packages\\PIL\\_version.py',
   'PYMODULE'),
  ('tkinter.filedialog',
   'C:\\Users\\sspsj\\anaconda3\\envs\\Hw1\\lib\\tkinter\\filedialog.py',
   'PYMODULE'),
  ('tkinter.commondialog',
   'C:\\Users\\sspsj\\anaconda3\\envs\\Hw1\\lib\\tkinter\\commondialog.py',
   'PYMODULE'),
  ('tkinter.dialog',
   'C:\\Users\\sspsj\\anaconda3\\envs\\Hw1\\lib\\tkinter\\dialog.py',
   'PYMODULE'),
  ('tkinter',
   'C:\\Users\\sspsj\\anaconda3\\envs\\Hw1\\lib\\tkinter\\__init__.py',
   'PYMODULE'),
  ('tkinter.constants',
   'C:\\Users\\sspsj\\anaconda3\\envs\\Hw1\\lib\\tkinter\\constants.py',
   'PYMODULE')])
